<svg width="48" height="49" viewBox="0 0 48 49" fill="none" xmlns="http://www.w3.org/2000/svg">
<path d="M47.2 0H0.8C0.3582 0 0 0.3582 0 0.8V32.8C0 33.2418 0.3582 33.6 0.8 33.6H15.28L8.64 40.2344C8.3276 40.5469 8.3277 41.0534 8.6402 41.3658C8.7908 41.5163 8.9951 41.6006 9.208 41.6H15.2V47.592C15.2001 48.0338 15.5583 48.3919 16.0002 48.3918C16.2123 48.3918 16.4156 48.3075 16.5656 48.1576L23.9256 40.7976L24 40.8H24.0752L31.4352 48.16C31.7481 48.4719 32.2546 48.4711 32.5666 48.1582C32.7164 48.0079 32.8004 47.8042 32.8 47.592V41.6H38.792C39.2338 41.5999 39.5919 41.2417 39.5918 40.7998C39.5918 40.5877 39.5075 40.3844 39.3576 40.2344L32.72 33.6H47.2C47.6418 33.6 48 33.2418 48 32.8V0.8C48 0.3582 47.6418 0 47.2 0ZM16.8 45.6608V40.8C16.8 40.3582 16.4418 40 16 40H11.1392L16.2712 34.868C16.28 34.9 16.288 34.9288 16.2968 34.9592C16.3056 34.9896 16.3096 35.0088 16.3168 35.032C16.332 35.0848 16.3472 35.1336 16.3616 35.1736C16.4395 35.4395 16.5366 35.6993 16.652 35.9512C16.6912 36.0504 16.732 36.1488 16.7744 36.2328C16.8687 36.434 16.9756 36.629 17.0944 36.8168C17.1901 37.0001 17.3008 37.1751 17.4256 37.34C17.5469 37.5215 17.6775 37.6967 17.8168 37.8648C17.8544 37.916 17.8968 37.964 17.8968 37.964C18.04 38.1336 18.1912 38.2944 18.3504 38.4528C18.5096 38.6112 18.6704 38.7648 18.7912 38.8616C18.8373 38.9061 18.8865 38.9472 18.9384 38.9848C19.0918 39.1133 19.2521 39.2335 19.4184 39.3448C19.5939 39.4753 19.7769 39.5955 19.9664 39.7048C20.1624 39.8208 20.3664 39.928 20.5576 40.0184C20.6427 40.0611 20.73 40.0993 20.8192 40.1328C21.0702 40.2491 21.3293 40.3473 21.5944 40.4264C21.708 40.4664 21.8208 40.4976 21.9368 40.5288L16.8 45.6608ZM25.6432 38.984L25.5376 39.0128C25.3544 39.0544 25.172 39.0928 24.9872 39.1248C24.7832 39.1544 24.5712 39.1752 24.3528 39.1904C24.24 39.2 24.1232 39.2 24 39.2C23.8768 39.2 23.76 39.2 23.6544 39.1944C23.4344 39.1792 23.2224 39.1576 23.0208 39.1288C22.832 39.1 22.6496 39.0576 22.4872 39.0216L22.3608 38.9872C22.2808 38.9656 22.2008 38.9456 22.0856 38.9072C21.8668 38.8427 21.6529 38.7625 21.4456 38.6672C21.3888 38.644 21.332 38.6224 21.26 38.5872C21.1 38.5072 20.9336 38.4272 20.78 38.3352C20.6307 38.2491 20.4865 38.1545 20.348 38.052C20.2068 37.9573 20.0709 37.855 19.9408 37.7456C19.9173 37.7253 19.8927 37.7064 19.8672 37.6888C19.7336 37.576 19.6056 37.4552 19.4768 37.3264C19.348 37.1976 19.2288 37.0712 19.1152 36.9392C19.0982 36.9134 19.0798 36.8885 19.06 36.8648C18.9381 36.7195 18.8243 36.5675 18.7192 36.4096C18.6253 36.2828 18.541 36.1491 18.4672 36.0096C18.3723 35.8571 18.2868 35.6989 18.2112 35.536C18.1824 35.4784 18.1608 35.4216 18.1176 35.3176C18.0243 35.1129 17.9459 34.9017 17.8832 34.6856C17.8544 34.6056 17.8344 34.5256 17.8128 34.4456L17.784 34.34C17.7424 34.1568 17.7 33.9744 17.672 33.7896C17.6424 33.5856 17.6216 33.3736 17.6064 33.1552C17.6 33.04 17.6 32.9184 17.6 32.8C17.6 29.2654 20.4654 26.4 24 26.4C27.5346 26.4 30.4 29.2654 30.4 32.8C30.4 32.9192 30.4 33.04 30.3944 33.1456C30.3792 33.3656 30.3576 33.5776 30.3288 33.7792C30.3 33.968 30.2576 34.1504 30.2216 34.3128L30.1872 34.4392C30.1656 34.5192 30.1456 34.5992 30.1072 34.7144C30.0424 34.9331 29.9622 35.147 29.8672 35.3544C29.844 35.4112 29.8224 35.468 29.7872 35.54C29.7072 35.7 29.6272 35.8664 29.5328 36.02C29.448 36.1685 29.3542 36.3117 29.252 36.4488C29.1575 36.5906 29.0549 36.7268 28.9448 36.8568C28.9248 36.88 28.9061 36.9043 28.8888 36.9296C28.776 37.0632 28.6552 37.1912 28.5264 37.32C28.3976 37.4488 28.2712 37.568 28.1392 37.6816C28.113 37.6986 28.0878 37.7173 28.064 37.7376C27.9189 37.8586 27.7675 37.9718 27.6104 38.0768C27.4885 38.1663 27.3616 38.2488 27.2304 38.324C27.0744 38.416 26.9104 38.5008 26.7336 38.5856C26.676 38.6144 26.6192 38.636 26.5152 38.68C26.3104 38.7729 26.0992 38.851 25.8832 38.9136C25.8032 38.9424 25.7232 38.9624 25.6432 38.984ZM36.8608 40H32C31.5582 40 31.2 40.3582 31.2 40.8V45.6608L26.068 40.5288L26.1592 40.5032C26.184 40.4968 26.2088 40.4904 26.232 40.4832C26.2848 40.468 26.3336 40.4528 26.3736 40.4384C26.6394 40.3602 26.8992 40.2631 27.1512 40.148C27.2504 40.1088 27.3488 40.068 27.4328 40.0256C27.6376 39.928 27.8424 39.8208 28.044 39.7056C28.2155 39.6074 28.3811 39.4992 28.54 39.3816C28.7218 39.2604 28.897 39.1296 29.0648 38.9896C29.0995 38.965 29.1326 38.9383 29.164 38.9096C29.3336 38.7664 29.4944 38.6152 29.6528 38.456C29.8112 38.2968 29.9648 38.136 30.0616 38.0152C30.1063 37.9688 30.1478 37.9194 30.1856 37.8672C30.3139 37.714 30.4336 37.5537 30.544 37.3872C30.675 37.2115 30.7954 37.0283 30.9048 36.8384C31.0208 36.6424 31.128 36.4384 31.2184 36.2472C31.268 36.1488 31.3088 36.0504 31.3336 35.9856C31.4496 35.7345 31.5475 35.4755 31.6264 35.2104C31.6664 35.0968 31.6976 34.984 31.7288 34.868L36.8608 40ZM46.4 32H31.96V31.9928C31.9536 31.9272 31.9392 31.864 31.9312 31.7992C31.9072 31.6056 31.8808 31.412 31.8432 31.2232C31.8232 31.1232 31.7944 31.0272 31.7712 30.9296C31.7344 30.7784 31.7 30.6264 31.6552 30.4792C31.6224 30.3728 31.5832 30.2712 31.5464 30.1672C31.4992 30.032 31.4528 29.896 31.3984 29.7672C31.3552 29.6616 31.3048 29.5592 31.2576 29.456C31.1992 29.3312 31.1424 29.2064 31.0784 29.0856C31.024 28.9824 30.9648 28.884 30.9064 28.784C30.8384 28.668 30.7712 28.552 30.6976 28.44C30.6336 28.3424 30.5656 28.248 30.4976 28.1528C30.4176 28.0456 30.3424 27.9384 30.2576 27.8328C30.1728 27.7272 30.1088 27.652 30.032 27.564C29.9456 27.464 29.8576 27.3664 29.7664 27.2712C29.6752 27.176 29.6064 27.1048 29.5176 27.024C29.4288 26.9432 29.324 26.844 29.224 26.7576C29.136 26.6776 29.0472 26.6064 28.956 26.5336C28.852 26.4536 28.7448 26.3736 28.636 26.2936C28.5424 26.2264 28.4472 26.16 28.3504 26.096C28.2376 26.0232 28.1216 25.9544 28.0048 25.8864C27.9056 25.8288 27.8064 25.7704 27.704 25.7168C27.5824 25.6528 27.4576 25.5952 27.332 25.5376C27.2296 25.4896 27.1272 25.4408 27.0224 25.3976C26.8904 25.3432 26.7544 25.2968 26.6224 25.2496C26.5184 25.2136 26.416 25.1744 26.3096 25.1424C26.1656 25.0992 26.0168 25.0624 25.8696 25.0288C25.768 25.0048 25.668 24.976 25.5648 24.956C25.3984 24.9224 25.228 24.9008 25.0576 24.876C24.9696 24.864 24.8832 24.8464 24.7944 24.8376C24.5336 24.812 24.2688 24.7976 24.0016 24.7976C23.7344 24.7976 23.4696 24.812 23.2088 24.8376C23.12 24.8464 23.0336 24.864 22.9456 24.876C22.7752 24.8984 22.6048 24.92 22.4384 24.956C22.3352 24.976 22.2352 25.0048 22.1336 25.0288C21.9864 25.0648 21.8376 25.0992 21.6936 25.1424C21.5872 25.1744 21.4848 25.2136 21.3808 25.2496C21.2456 25.2968 21.1096 25.3432 20.9808 25.3976C20.876 25.4408 20.7736 25.4896 20.6712 25.5376C20.5456 25.5952 20.4208 25.6528 20.2992 25.7168C20.1968 25.7704 20.0976 25.8288 19.9984 25.8864C19.8816 25.9544 19.7656 26.0232 19.6528 26.096C19.556 26.16 19.4608 26.2264 19.3672 26.2936C19.2584 26.3736 19.1512 26.4536 19.0472 26.5336C18.956 26.6064 18.8672 26.6808 18.7792 26.7576C18.6792 26.844 18.5808 26.9328 18.4856 27.024C18.3904 27.1152 18.3184 27.184 18.2368 27.2712C18.1552 27.3584 18.0576 27.464 17.9712 27.564C17.8912 27.652 17.8192 27.7408 17.7456 27.8328C17.672 27.9248 17.5856 28.0432 17.5056 28.1528C17.4376 28.248 17.3696 28.3424 17.3056 28.44C17.232 28.552 17.1648 28.668 17.0968 28.784C17.0384 28.884 16.9792 28.9824 16.9248 29.0856C16.8608 29.2064 16.804 29.3312 16.7456 29.456C16.6984 29.5592 16.648 29.6616 16.6048 29.7672C16.5504 29.8992 16.504 30.0352 16.4568 30.1672C16.42 30.2712 16.3768 30.3728 16.348 30.4792C16.3032 30.6264 16.268 30.7784 16.232 30.9296C16.2088 31.0272 16.18 31.1232 16.16 31.2232C16.1224 31.412 16.096 31.6056 16.072 31.7992C16.064 31.864 16.0496 31.9272 16.0432 31.9928V32H1.6V1.6H46.4V32Z" fill="#2B2A31"/>
</svg>
