<svg width="16" height="16" viewBox="0 0 16 16" fill="none" xmlns="http://www.w3.org/2000/svg">
<path d="M11.5845 0H4.41533C1.98072 0 0 1.98081 0 4.41542V11.5846C0 14.0193 1.98072 16 4.41533 16H11.5845C14.0193 16 16 14.0192 16 11.5846V4.41542C16.0001 1.98081 14.0193 0 11.5845 0ZM14.5805 11.5846C14.5805 13.2365 13.2365 14.5804 11.5846 14.5804H4.41533C2.76348 14.5805 1.4196 13.2365 1.4196 11.5846V4.41542C1.4196 2.76358 2.76348 1.4196 4.41533 1.4196H11.5845C13.2364 1.4196 14.5804 2.76358 14.5804 4.41542V11.5846H14.5805Z" fill="#D3B069"/>
<path d="M7.99975 3.87735C5.7264 3.87735 3.87695 5.7268 3.87695 8.00014C3.87695 10.2734 5.7264 12.1227 7.99975 12.1227C10.2731 12.1227 12.1225 10.2734 12.1225 8.00014C12.1225 5.7268 10.2731 3.87735 7.99975 3.87735ZM7.99975 10.7031C6.50927 10.7031 5.29655 9.49053 5.29655 8.00005C5.29655 6.50947 6.50917 5.29685 7.99975 5.29685C9.49033 5.29685 10.7029 6.50947 10.7029 8.00005C10.7029 9.49053 9.49023 10.7031 7.99975 10.7031Z" fill="#D3B069"/>
<path d="M12.2949 2.67369C12.0214 2.67369 11.7528 2.78442 11.5596 2.97843C11.3655 3.1715 11.2539 3.44027 11.2539 3.71473C11.2539 3.98833 11.3656 4.25701 11.5596 4.45103C11.7527 4.64409 12.0214 4.75577 12.2949 4.75577C12.5694 4.75577 12.8372 4.64409 13.0312 4.45103C13.2253 4.25701 13.336 3.98824 13.336 3.71473C13.336 3.44027 13.2253 3.1715 13.0312 2.97843C12.8382 2.78442 12.5694 2.67369 12.2949 2.67369Z" fill="#D3B069"/>
</svg>
