<svg width="28" height="24" viewBox="0 0 28 24" fill="none" xmlns="http://www.w3.org/2000/svg">
<path d="M14 22.3571L27 7.45681M14 22.3571L1 7.45681M14 22.3571L20.0636 7.92257C20.1866 7.62969 20.1632 7.29577 20.0004 7.02296L16.4074 1M14 22.3571L7.93556 7.9206C7.813 7.62882 7.83578 7.29626 7.99698 7.02392L11.5627 1M27 7.45681L22.0038 1.3658C21.8138 1.13424 21.5301 1 21.2306 1H16.4074M27 7.45681H1M1 7.45681L5.99624 1.3658C6.18619 1.13424 6.46991 1 6.76941 1H11.5627M16.4074 1H11.5627" stroke="#C4C4C4" stroke-width="1.5" stroke-linecap="round" stroke-linejoin="round"/>
</svg>
