<svg width="76" height="80" viewBox="0 0 76 80" fill="none" xmlns="http://www.w3.org/2000/svg">
<g clip-path="url(#clip0)">
<path d="M8.95669 38.7767C9.05164 38.9454 8.95669 38.7767 8.95669 38.7767V38.7767Z" fill="#D7B46A"/>
<path d="M29.5391 73.2718C26.5641 74.0522 25.794 75.0541 25.5936 75.8344C25.5537 75.9535 25.5396 76.0796 25.5522 76.2045C25.5648 76.3295 25.6038 76.4503 25.6667 76.559C25.7295 76.6676 25.8147 76.7617 25.9167 76.835C26.0187 76.9083 26.1351 76.959 26.2582 76.9839C26.5211 77.0191 26.7876 76.9539 27.0046 76.8015C27.2216 76.6491 27.3732 76.4205 27.4292 76.1614C27.4851 75.9827 27.4836 75.791 27.4249 75.6132C27.3663 75.4354 27.2534 75.2805 27.1022 75.1701C27.0178 75.1701 26.9123 75.1068 27.1022 74.938C27.5338 74.5231 28.0428 74.197 28.6002 73.9784C28.7374 73.9784 28.7479 73.9784 28.6741 74.0944C28.6173 74.1812 28.5798 74.2791 28.564 74.3816C28.5482 74.4841 28.5545 74.5888 28.5824 74.6887C28.6104 74.7885 28.6594 74.8812 28.7262 74.9606C28.7929 75.04 28.8759 75.1042 28.9695 75.149C29.0961 75.149 29.0855 75.149 29.1383 75.0646C29.4969 74.1998 30.9528 73.314 32.8412 72.1223C31.761 72.585 30.6371 72.9383 29.4864 73.1769L29.5391 73.2718Z" fill="#D7B46A"/>
<path d="M46.4925 73.2718C45.3388 73.0317 44.2116 72.6785 43.1272 72.2173C45.0261 73.4089 46.482 74.3264 46.8406 75.1595C46.8934 75.2755 46.8406 75.2861 47.0094 75.2439C47.1022 75.1982 47.1841 75.1332 47.2497 75.0534C47.3154 74.9736 47.3633 74.8807 47.3903 74.7809C47.4172 74.6812 47.4226 74.5768 47.406 74.4748C47.3895 74.3728 47.3514 74.2754 47.2943 74.1893C47.231 74.0628 47.231 74.0311 47.3681 74.0733C47.9281 74.287 48.438 74.6137 48.8662 75.033C49.035 75.2017 48.94 75.2122 48.8662 75.265C48.7137 75.3743 48.5999 75.5292 48.5411 75.7073C48.4823 75.8855 48.4816 76.0777 48.5391 76.2563C48.5976 76.5197 48.7549 76.7508 48.9786 76.9018C49.2023 77.0529 49.4755 77.1125 49.7418 77.0683C49.8666 77.0467 49.9855 76.999 50.0905 76.9282C50.1955 76.8574 50.2844 76.7651 50.3512 76.6575C50.4179 76.5499 50.4612 76.4294 50.478 76.3039C50.4948 76.1784 50.4848 76.0507 50.4486 75.9293C50.2376 75.149 49.4781 74.1471 46.5031 73.3667L46.4925 73.2718Z" fill="#D7B46A"/>
<path d="M66.7585 49.6283C66.627 49.3094 66.3741 49.0558 66.0556 48.9233C65.7371 48.7908 65.3789 48.7902 65.06 48.9217C64.741 49.0531 64.4873 49.3059 64.3548 49.6243C64.2222 49.9427 64.2216 50.3007 64.3531 50.6196C64.427 50.7567 64.5114 50.6196 64.5852 50.5668C64.6794 50.4675 64.796 50.3923 64.9253 50.3474C65.0546 50.3025 65.1927 50.2894 65.3282 50.309C65.4636 50.3286 65.5924 50.3805 65.7036 50.4602C65.8148 50.54 65.9052 50.6452 65.9672 50.7672C66.1219 51.1103 66.2018 51.4824 66.2018 51.8587C66.2018 52.235 66.1219 52.607 65.9672 52.9502C65.58 53.8717 64.9799 54.6885 64.216 55.3335L64.1316 55.2597C64.2969 54.9031 64.3531 54.5056 64.293 54.1172C64.2329 53.7288 64.0593 53.3668 63.794 53.0767C63.6041 52.9396 63.5936 52.9185 63.583 53.1716C63.5464 54.1521 63.1739 55.0903 62.528 55.8292C62.5403 55.6091 62.4729 55.392 62.3382 55.2175C62.7045 54.6326 63.0153 54.0147 63.2665 53.372C63.6885 52.0432 63.4142 50.5879 62.2116 50.1239L62.0217 50.0712C62.3497 49.0337 62.6139 47.9772 62.8129 46.9075H62.9078C63.4116 46.9359 63.9169 46.9147 64.4164 46.8442C65.5347 46.8442 66.7585 47.4769 66.9906 49.5228C66.9906 49.7232 66.9906 49.9235 66.7585 49.6494V49.6283ZM62.1799 54.4266C62.2951 54.1451 62.3295 53.8371 62.2792 53.5371C62.2289 53.2372 62.0959 52.9572 61.8951 52.7287H61.8423C61.8812 53.585 61.7503 54.4404 61.457 55.2459C61.1636 56.0513 60.7138 56.7907 60.1333 57.4216C60.7256 56.3485 61.0851 55.1627 61.1882 53.9415C60.539 54.3092 59.991 54.8321 59.5933 55.4633C59.1957 56.0945 58.9607 56.8144 58.9095 57.5587C58.6671 58.433 58.1492 59.2059 57.4325 59.7627C57.3481 59.8365 57.2954 59.7627 57.327 59.6783C57.4635 59.2069 57.5519 58.7228 57.5908 58.2336C59.0546 56.4543 60.2653 54.4811 61.1882 52.3702H61.2832C61.5335 52.4139 61.7911 52.3844 62.0251 52.2853C62.259 52.1861 62.4593 52.0215 62.6019 51.8112C62.6019 51.8112 62.6652 51.7374 62.7179 51.8112C62.9134 52.2527 62.9727 52.7424 62.8881 53.2177C62.8035 53.693 62.579 54.1323 62.2432 54.4793C62.1377 54.6059 62.1272 54.4793 62.1588 54.4793L62.1799 54.4266ZM37.9789 66.0058C33.2812 66.0079 28.6885 64.6171 24.7816 62.0095C20.8748 59.4019 17.8294 55.6946 16.0307 51.3565C14.232 47.0185 13.7608 42.2446 14.6768 37.6388C15.5927 33.033 17.8547 28.8022 21.1764 25.4817C24.4982 22.1612 28.7305 19.9001 33.3381 18.9845C37.9456 18.0689 42.7213 18.5399 47.061 20.3379C51.4007 22.1359 55.1094 25.1801 57.718 29.0855C60.3266 32.9909 61.7178 37.582 61.7157 42.2779C61.7157 45.3939 61.1017 48.4794 59.9089 51.3582C58.716 54.237 56.9675 56.8527 54.7634 59.056C52.5592 61.2594 49.9425 63.0072 47.0626 64.1996C44.1827 65.3921 41.0961 66.0058 37.9789 66.0058ZM56.2299 60.8489C56.2893 60.4751 56.2893 60.0943 56.2299 59.7205C56.3056 59.6483 56.3761 59.5708 56.4409 59.4885C56.4846 59.9535 56.4083 60.4218 56.2193 60.8489H56.2299ZM54.9639 62.5679C54.8268 62.7261 54.6474 62.821 54.7213 62.4624C54.8231 62.0753 54.7858 61.6648 54.6158 61.3024C55.0483 60.9227 55.4703 60.5326 55.8712 60.1213C55.9084 60.5706 55.8464 61.0226 55.6896 61.4454C55.5328 61.8681 55.2851 62.2513 54.9639 62.5679ZM53.4237 62.5679C53.2759 62.9121 53.0564 63.2208 52.7799 63.4736C52.5034 63.7263 52.1762 63.9173 51.8201 64.0337C51.3209 64.2126 50.7987 64.3191 50.2693 64.3501C51.3761 63.728 52.4341 63.0229 53.4342 62.241C53.4554 62.356 53.4554 62.4739 53.4342 62.589L53.4237 62.5679ZM24.1799 64.0654C23.8228 63.9508 23.4947 63.7605 23.218 63.5075C22.9412 63.2545 22.7224 62.9448 22.5763 62.5995C22.5551 62.4845 22.5551 62.3665 22.5763 62.2515C23.5768 63.0331 24.6347 63.7382 25.7413 64.3607C25.2116 64.3317 24.6891 64.2251 24.1905 64.0443L24.1799 64.0654ZM21.2787 62.4624C21.3526 62.821 21.1627 62.7261 21.0361 62.5679C20.7162 62.2477 20.4688 61.8627 20.3105 61.4389C20.1521 61.015 20.0866 60.5621 20.1183 60.1107C20.5297 60.522 20.9517 60.9122 21.3842 61.2918C21.2087 61.6527 21.1712 62.0653 21.2787 62.4519V62.4624ZM19.7385 60.8489C19.5595 60.419 19.4836 59.9531 19.5169 59.4885L19.7279 59.7205C19.6754 60.0948 19.6754 60.4746 19.7279 60.8489H19.7385ZM18.5886 59.7944C17.868 59.2392 17.3463 58.4661 17.1011 57.5903C17.0537 56.8464 16.8215 56.126 16.4255 55.4944C16.0294 54.8628 15.482 54.3399 14.8329 53.9731C14.936 55.1943 15.2955 56.3801 15.8878 57.4532C15.2977 56.8216 14.8405 56.078 14.5433 55.2664C14.2461 54.4549 14.115 53.5919 14.1577 52.7287H14.1049C13.8976 52.9556 13.7604 53.2377 13.7099 53.5408C13.6593 53.844 13.6976 54.1552 13.8201 54.4371C13.8201 54.5109 13.8201 54.6164 13.7357 54.4371C13.4139 54.0853 13.204 53.6459 13.1326 53.1746C13.0613 52.7033 13.1316 52.2214 13.3348 51.7901C13.3348 51.7269 13.4298 51.7901 13.4509 51.7901C13.5925 52.0014 13.7927 52.1668 14.0269 52.266C14.2611 52.3653 14.5192 52.3942 14.7696 52.3491H14.854C15.775 54.4541 16.9743 56.4261 18.4198 58.2125C18.4638 58.7011 18.5521 59.1846 18.6835 59.6573C18.6835 59.7944 18.6835 59.8154 18.5886 59.7416V59.7944ZM13.5036 55.787C12.8577 55.0481 12.4853 54.11 12.4486 53.1294C12.4486 52.8763 12.4486 52.8974 12.2376 53.0345C11.9723 53.3246 11.7987 53.6866 11.7387 54.075C11.6786 54.4634 11.7348 54.8609 11.9001 55.2175L11.8051 55.2913C11.0262 54.6489 10.4145 53.8275 10.0222 52.8974C9.86759 52.5543 9.78764 52.1823 9.78764 51.806C9.78764 51.4296 9.86759 51.0576 10.0222 50.7145C10.0847 50.5945 10.1748 50.491 10.2851 50.4126C10.3954 50.3342 10.5227 50.2831 10.6567 50.2636C10.7906 50.244 10.9272 50.2565 11.0554 50.3001C11.1835 50.3436 11.2995 50.417 11.3937 50.5141C11.4781 50.609 11.5625 50.7039 11.6363 50.5668C11.7247 50.2593 11.6953 49.9298 11.5538 49.6427C11.4123 49.3556 11.1688 49.1316 10.8709 49.0143C10.573 48.8971 10.2421 48.895 9.9428 49.0085C9.64347 49.122 9.39721 49.343 9.25209 49.6283C9.04109 49.9025 8.98834 49.7021 9.00944 49.5017C9.23099 47.4558 10.4548 46.8547 11.6047 46.8231C12.1042 46.8939 12.6095 46.9151 13.1133 46.8864H13.2082C13.3972 47.9582 13.6616 49.0154 13.9994 50.0501L13.799 50.1028C12.6385 50.5668 12.3748 52.0221 12.744 53.3509C13.01 53.988 13.3349 54.5988 13.7146 55.1753C13.5769 55.3488 13.5058 55.5657 13.5142 55.787H13.5036ZM9.19934 47.3504C9.54592 46.8138 10.0468 46.3947 10.6362 46.1481C11.2256 45.9016 11.8758 45.8391 12.5014 45.9689C12.8073 45.9689 12.9234 45.758 12.9656 45.4943C12.9656 45.7369 13.0289 45.99 13.0711 46.2325C12.7403 46.3827 12.3684 46.4162 12.0161 46.3274C11.4933 46.2651 10.9631 46.3283 10.4696 46.5117C9.97607 46.6951 9.53338 46.9934 9.17824 47.382L9.19934 47.3504ZM12.9339 38.6818C12.9339 38.6818 13.2082 37.3636 12.5014 37.4057C11.8758 37.5356 11.2256 37.4731 10.6362 37.2265C10.0468 36.9799 9.54592 36.5608 9.19934 36.0243C9.55286 36.4149 9.99533 36.7148 10.4893 36.8983C10.9833 37.0819 11.5142 37.1438 12.0372 37.0788C12.7229 36.9734 13.0922 37.0788 13.2926 37.3741C13.2082 37.8065 13.1238 38.2494 13.0605 38.6923C13.0417 38.7046 13.0197 38.7111 12.9972 38.7111C12.9748 38.7111 12.9528 38.7046 12.9339 38.6923V38.6818ZM9.24154 33.6409C9.39718 33.9076 9.64359 34.1095 9.9358 34.2097C10.228 34.3099 10.5465 34.3016 10.8331 34.1865C11.1198 34.0714 11.3554 33.857 11.4971 33.5826C11.6387 33.3082 11.6769 32.992 11.6047 32.6918C11.5308 32.5653 11.4464 32.6918 11.362 32.6918C11.2678 32.7889 11.1519 32.8623 11.0237 32.9058C10.8956 32.9494 10.7589 32.9619 10.625 32.9423C10.4911 32.9228 10.3637 32.8717 10.2534 32.7933C10.1431 32.7149 10.053 32.6114 9.99056 32.4914C9.83594 32.1483 9.75599 31.7763 9.75599 31.3999C9.75599 31.0236 9.83594 30.6516 9.99056 30.3085C10.3753 29.3855 10.9758 28.5682 11.7418 27.9251L11.8368 27.9989C11.6701 28.3552 11.6131 28.7531 11.6733 29.1418C11.7334 29.5305 11.9078 29.8926 12.1744 30.1819C12.3642 30.319 12.3642 30.3401 12.3853 30.087C12.4237 29.1068 12.7959 28.1692 13.4403 27.4295C13.432 27.6507 13.5031 27.8677 13.6408 28.0411C13.2745 28.626 12.9636 29.2439 12.7124 29.8866C12.2904 31.2154 12.5541 32.6707 13.7674 33.1347C13.9917 33.2256 14.2388 33.244 14.4742 33.1874C14.0464 34.262 13.6939 35.3649 13.4192 36.4883C13.3064 36.4143 13.1814 36.3607 13.05 36.3301C12.5463 36.3014 12.0409 36.3226 11.5414 36.3934C10.4126 36.3934 9.18879 35.7606 8.95669 33.7147C8.95669 33.5144 8.95669 33.314 9.19934 33.5882L9.24154 33.6409ZM13.8201 28.8426C13.6909 29.1284 13.6489 29.4461 13.6996 29.7556C13.7503 30.0652 13.8913 30.3529 14.1049 30.5826H14.1577C14.1177 29.7155 14.2531 28.8492 14.5559 28.0357C14.8586 27.2221 15.3224 26.4779 15.9195 25.8476C15.3271 26.9207 14.9677 28.1065 14.8645 29.3277C15.5137 28.9609 16.0611 28.438 16.4571 27.8064C16.8532 27.1748 17.0854 26.4544 17.1327 25.7105C17.3779 24.8348 17.8997 24.0617 18.6202 23.5065C18.7046 23.4326 18.7574 23.5065 18.7152 23.5908C18.4103 24.4828 18.3448 25.4392 18.5253 26.3644C17.2859 27.88 16.224 29.5323 15.3604 31.2892C15.2204 31.0891 15.0153 30.9437 14.7801 30.8779C14.5299 30.8355 14.2727 30.8656 14.039 30.9647C13.8053 31.0637 13.6049 31.2276 13.4614 31.4369C13.4614 31.4369 13.3981 31.5107 13.3454 31.4369C13.138 31.0086 13.0625 30.5285 13.1282 30.0574C13.1939 29.5862 13.398 29.1451 13.7146 28.7899C13.8201 28.6633 13.8201 28.7899 13.799 28.8426H13.8201ZM19.7385 22.4202C19.6196 23.1744 19.7452 23.9468 20.0972 24.6243L19.8651 24.8669C19.6541 24.4973 19.5327 24.0835 19.5107 23.6586C19.4887 23.2337 19.5667 22.8096 19.7385 22.4202ZM21.0361 20.7013C21.1627 20.5431 21.3526 20.4482 21.2787 20.8067C21.0255 21.9773 21.6902 22.5257 22.3337 22.5995C21.6981 23.1206 21.089 23.6732 20.5086 24.2552C20.173 23.6984 20.0421 23.0421 20.1383 22.3992C20.2346 21.7563 20.5521 21.1671 21.0361 20.7329V20.7013ZM22.5763 20.7013C22.7224 20.356 22.9412 20.0463 23.218 19.7933C23.4947 19.5403 23.8228 19.35 24.1799 19.2354C24.7051 19.0454 25.2569 18.9387 25.8151 18.9191C25.9447 18.9517 26.0716 18.994 26.1949 19.0456L26.7962 19.2354C26.324 19.4725 25.9505 19.8683 25.7413 20.3533C24.9013 20.8253 24.0878 21.3428 23.3043 21.9035C22.7029 21.9035 22.4181 21.2286 22.5869 20.7013H22.5763ZM38.7596 15.207C38.787 15.3231 38.7877 15.4439 38.7618 15.5603C38.7358 15.6768 38.6839 15.7858 38.6098 15.8793C38.5357 15.9729 38.4414 16.0484 38.334 16.1004C38.2266 16.1523 38.1088 16.1793 37.9895 16.1793C37.8701 16.1793 37.7523 16.1523 37.6449 16.1004C37.5375 16.0484 37.4432 15.9729 37.3691 15.8793C37.295 15.7858 37.2431 15.6768 37.2171 15.5603C37.1912 15.4439 37.192 15.3231 37.2193 15.207C37.192 15.0908 37.1912 14.97 37.2171 14.8536C37.2431 14.7372 37.295 14.6281 37.3691 14.5346C37.4432 14.441 37.5375 14.3655 37.6449 14.3135C37.7523 14.2616 37.8701 14.2346 37.9895 14.2346C38.1088 14.2346 38.2266 14.2616 38.334 14.3135C38.4414 14.3655 38.5357 14.441 38.6098 14.5346C38.6839 14.6281 38.7358 14.7372 38.7618 14.8536C38.7877 14.97 38.787 15.0908 38.7596 15.207ZM31.2904 13.5196C31.2904 13.5196 33.4003 12.1698 38 12.1698C42.5997 12.1698 44.678 13.5196 44.678 13.5196C40.2559 12.6699 35.7124 12.6699 31.2904 13.5196ZM34.4553 15.8713C34.2993 15.8435 34.1581 15.7616 34.0564 15.6402C33.9547 15.5187 33.899 15.3653 33.899 15.207C33.899 15.0486 33.9547 14.8952 34.0564 14.7738C34.1581 14.6523 34.2993 14.5705 34.4553 14.5426C34.6031 14.5801 34.7342 14.6658 34.8278 14.7861C34.9214 14.9064 34.9722 15.0545 34.9722 15.207C34.9722 15.3594 34.9214 15.5075 34.8278 15.6278C34.7342 15.7481 34.6031 15.8338 34.4553 15.8713ZM32.1766 15.5761C32.0605 15.5761 31.9656 15.4073 31.9656 15.207C31.9656 15.0066 32.0605 14.8379 32.1766 14.8379C32.2926 14.8379 32.3876 15.0066 32.3876 15.207C32.3876 15.4073 32.2926 15.5761 32.1766 15.5761ZM43.6968 15.5761C43.5808 15.5761 43.4858 15.4073 43.4858 15.207C43.4858 15.0066 43.5808 14.8379 43.6968 14.8379C43.8129 14.8379 43.9078 15.0066 43.9078 15.207C43.9078 15.4073 43.8129 15.5761 43.6968 15.5761ZM41.5869 15.8713C41.4309 15.8435 41.2897 15.7616 41.188 15.6402C41.0863 15.5187 41.0306 15.3653 41.0306 15.207C41.0306 15.0486 41.0863 14.8952 41.188 14.7738C41.2897 14.6523 41.4309 14.5705 41.5869 14.5426C41.7347 14.5801 41.8658 14.6658 41.9594 14.7861C42.053 14.9064 42.1038 15.0545 42.1038 15.207C42.1038 15.3594 42.053 15.5075 41.9594 15.6278C41.8658 15.7481 41.7347 15.8338 41.5869 15.8713ZM49.8368 19.0351L50.2271 18.9085C50.7853 18.9281 51.3371 19.0349 51.8623 19.2249C52.2184 19.3413 52.5456 19.5323 52.8221 19.7851C53.0986 20.0378 53.3181 20.3466 53.4659 20.6907C53.6347 21.218 53.3498 21.9141 52.7379 21.893C51.9544 21.3322 51.1409 20.8147 50.3009 20.3427C50.0917 19.8577 49.7182 19.4619 49.246 19.2249L49.7946 18.9823L49.8368 19.0351ZM54.7635 20.8278C54.6896 20.4693 54.869 20.5642 55.0061 20.7224C55.4825 21.1648 55.7911 21.7583 55.8795 22.4022C55.968 23.0461 55.8308 23.7008 55.4914 24.2552C54.9 23.6832 54.2803 23.1412 53.6347 22.6312C54.2993 22.5573 54.9639 22.009 54.6896 20.8384L54.7635 20.8278ZM56.2932 22.4413C56.469 22.8292 56.5502 23.2533 56.53 23.6786C56.5098 24.104 56.3889 24.5185 56.1771 24.8879L55.9134 24.6243C56.2714 23.9487 56.3939 23.1732 56.2615 22.4202L56.2932 22.4413ZM57.4536 23.4959C58.1703 24.0527 58.6882 24.8256 58.9306 25.7C58.9779 26.444 59.2089 27.1647 59.6028 27.7978C59.9968 28.4308 60.5415 28.9564 61.1882 29.3277C61.0851 28.1065 60.7256 26.9207 60.1333 25.8476C60.7189 26.4835 61.1718 27.2299 61.4653 28.0429C61.7587 28.856 61.8869 29.7194 61.8423 30.5826H61.8951C62.0979 30.3531 62.2321 30.0713 62.2824 29.7693C62.3328 29.4672 62.2973 29.1571 62.1799 28.8742C62.1799 28.8004 62.1799 28.695 62.2643 28.8215C62.5836 29.1747 62.7919 29.614 62.8632 30.0847C62.9345 30.5554 62.8656 31.0366 62.6652 31.4685C62.6652 31.5318 62.5702 31.4685 62.5491 31.4685C62.4071 31.2451 62.202 31.0687 61.9598 30.9617C61.7176 30.8548 61.4491 30.8219 61.1882 30.8674C60.953 30.9332 60.748 31.0786 60.608 31.2787C59.744 29.522 58.6822 27.8696 57.4431 26.3538C57.6426 25.4356 57.5879 24.4803 57.2848 23.5908C57.2848 23.4643 57.2849 23.4326 57.3903 23.5065L57.4536 23.4959ZM62.528 27.4717C63.1717 28.2118 63.5438 29.1492 63.583 30.1292C63.583 30.3823 63.583 30.3612 63.794 30.2241C64.0606 29.9347 64.235 29.5727 64.2951 29.184C64.3552 28.7952 64.2983 28.3974 64.1316 28.0411C64.1643 28.0224 64.193 27.9973 64.216 27.9673C64.9799 28.6123 65.58 29.4291 65.9672 30.3506C66.1219 30.6938 66.2018 31.0658 66.2018 31.4421C66.2018 31.8185 66.1219 32.1905 65.9672 32.5336C65.9052 32.6556 65.8148 32.7608 65.7036 32.8406C65.5924 32.9203 65.4636 32.9722 65.3282 32.9918C65.1927 33.0114 65.0546 32.9983 64.9253 32.9534C64.796 32.9085 64.6794 32.8333 64.5852 32.734C64.5114 32.6391 64.427 32.5547 64.3531 32.734C64.2647 33.0416 64.2941 33.371 64.4356 33.6581C64.5772 33.9452 64.8206 34.1692 65.1185 34.2865C65.4164 34.4037 65.7473 34.4058 66.0467 34.2923C66.346 34.1788 66.5923 33.9578 66.7374 33.6726C66.9484 33.3984 67.0011 33.5987 66.9695 33.7991C66.7374 35.845 65.5136 36.4566 64.3953 36.4777C63.8958 36.4072 63.3905 36.386 62.8867 36.4144C62.7547 36.443 62.6293 36.4967 62.5175 36.5726C62.2427 35.4493 61.8902 34.3464 61.4625 33.2718C61.6978 33.3291 61.9452 33.3106 62.1694 33.2191C63.3298 32.7551 63.6041 31.2998 63.2243 29.971C62.9731 29.3283 62.6623 28.7104 62.296 28.1255C62.4307 27.951 62.4981 27.7339 62.4858 27.5138L62.528 27.4717ZM66.8323 35.961C66.4864 36.4956 65.9873 36.9134 65.4 37.1599C64.8128 37.4064 64.1648 37.47 63.5408 37.3425C62.834 37.3425 63.0977 38.6185 63.0977 38.6185C63.0977 38.6185 63.0977 38.6185 62.9817 38.6185C62.9078 38.1756 62.834 37.7327 62.739 37.3003C62.9289 37.0366 63.3193 36.8995 63.9945 37.005C64.5175 37.0718 65.049 37.0107 65.5433 36.827C66.0376 36.6434 66.4799 36.3426 66.8323 35.9504V35.961ZM63.5408 45.9056C64.1648 45.7781 64.8128 45.8417 65.4 46.0882C65.9873 46.3347 66.4864 46.7525 66.8323 47.2871C66.4783 46.8971 66.0357 46.5978 65.5419 46.4143C65.0481 46.2308 64.5174 46.1684 63.9945 46.2325C63.6423 46.323 63.2698 46.2895 62.9395 46.1376L63.0344 45.3994C63.0344 45.6631 63.2032 45.8951 63.5092 45.874L63.5408 45.9056ZM65.5875 62.009C65.8196 63.1901 64.8384 64.0654 64.6169 63.5803C64.3953 63.0952 65.6719 62.1988 63.8995 59.362C64.6519 60.1284 65.2279 61.0498 65.5875 62.0617V62.009ZM11.4148 63.5908C11.2038 64.0759 10.2121 63.2006 10.4442 62.0195C10.8068 61.0066 11.3865 60.0852 12.1427 59.3198C10.3598 62.2093 11.6363 63.1057 11.4148 63.5381V63.5908ZM10.4442 21.2497C10.2121 20.0685 11.2038 19.1932 11.4148 19.6784C11.6258 20.1635 10.3598 21.0598 12.1427 23.9494C11.3841 23.1859 10.804 22.2639 10.4442 21.2497ZM64.5747 19.6784C64.7962 19.1932 65.7774 20.0685 65.5453 21.2497C65.1879 22.2626 64.6116 23.1844 63.8573 23.9494C65.6402 21.0598 64.3637 20.1635 64.5747 19.6784ZM71.8223 44.9881C72.7323 44.6916 73.7172 44.7214 74.6075 45.0725H74.7974C75.7996 45.3783 73.7424 43.2586 71.2315 44.5769C70.099 45.1708 69.1258 46.0279 68.3937 47.0762C68.5475 46.5464 68.7635 46.0366 69.0372 45.5576C69.0372 45.4838 69.1322 45.4521 69.0372 45.3783C68.9367 45.3182 68.8247 45.2796 68.7085 45.2651C68.5923 45.2506 68.4743 45.2604 68.362 45.294C68.2671 45.294 68.2776 45.294 68.362 45.1463C68.4966 44.8386 68.7028 44.5674 68.9634 44.3554C68.9634 44.3554 69.0372 44.271 68.9634 44.271C68.642 44.2835 68.3319 44.393 68.0739 44.5849C67.816 44.7769 67.6222 45.0425 67.5181 45.3467C67.5181 45.4205 67.4126 45.5049 67.4126 45.3467C67.4105 44.897 67.5416 44.4567 67.7894 44.0814C68.0372 43.706 68.3906 43.4124 68.8051 43.2375C68.8895 43.2375 68.9001 43.2375 68.9001 43.3219C68.8755 43.5675 68.9259 43.8147 69.0445 44.0312C69.1631 44.2476 69.3445 44.4231 69.5647 44.5347C69.7022 44.5948 69.8504 44.6266 70.0005 44.6283C70.1506 44.63 70.2995 44.6014 70.4383 44.5443C70.5771 44.4872 70.703 44.4028 70.8084 44.2961C70.9139 44.1893 70.9968 44.0625 71.0522 43.923C71.1377 43.7618 71.1857 43.5834 71.1927 43.401C71.1996 43.2187 71.1653 43.0371 71.0923 42.8698C71.0193 42.7026 70.9095 42.5539 70.771 42.435C70.6326 42.3161 70.469 42.2299 70.2926 42.183C69.6823 42.0642 69.0495 42.1751 68.516 42.4943C67.9824 42.8136 67.5857 43.3186 67.402 43.9125C67.402 44.0285 67.3071 44.1656 67.2543 44.3237V44.2921C66.9563 44.7309 66.7318 45.2154 66.5897 45.7263V45.8318C66.5897 45.9372 66.5264 45.9583 66.4525 45.8318L66.2943 45.5998C66.1149 45.3994 65.8723 45.0936 65.598 44.735C65.1727 44.2917 64.6432 43.9618 64.0578 43.7754C63.7708 43.6757 63.4586 43.6757 63.1716 43.7754C63.1716 43.3008 63.1716 42.8157 63.1716 42.3412C63.1688 41.3616 63.1125 40.3829 63.0028 39.4094C63.3344 39.5609 63.7105 39.5834 64.0578 39.4727C64.6432 39.2863 65.1727 38.9564 65.598 38.513C65.8723 38.1545 66.1149 37.8487 66.2943 37.6483L66.4631 37.4374C66.5369 37.3214 66.5897 37.3425 66.6002 37.4374V37.5323C66.7337 38.061 66.9548 38.5636 67.2543 39.0192V38.9138C67.2543 39.072 67.3493 39.2091 67.402 39.3251C67.5836 39.9203 67.98 40.4268 68.5141 40.7463C69.0482 41.0659 69.6821 41.1758 70.2926 41.0546C70.4605 41.0056 70.6158 40.9209 70.7479 40.8063C70.88 40.6917 70.9857 40.5499 71.0579 40.3907C71.13 40.2314 71.1669 40.0584 71.1659 39.8836C71.1649 39.7088 71.1261 39.5362 71.0522 39.3778C70.9968 39.2384 70.9139 39.1115 70.8084 39.0047C70.703 38.898 70.5771 38.8136 70.4383 38.7565C70.2995 38.6994 70.1506 38.6709 70.0005 38.6725C69.8504 38.6742 69.7022 38.706 69.5647 38.7661C69.3454 38.8788 69.1649 39.0546 69.0465 39.2707C68.928 39.4869 68.877 39.7335 68.9001 39.9789C68.9001 39.9789 68.9001 40.0738 68.8051 40.0633C68.3802 39.8867 68.0188 39.5856 67.7683 39.1997C67.5179 38.8139 67.3902 38.3612 67.402 37.9014C67.402 37.7432 67.4759 37.817 67.5075 37.9014C67.6071 38.1845 67.7848 38.4338 68.02 38.6203C68.2551 38.8069 68.5383 38.9233 68.8368 38.956C68.9634 38.956 68.9317 38.8927 68.8368 38.8716C68.5775 38.6626 68.3714 38.3951 68.2354 38.0912C68.2354 37.9752 68.2354 37.8908 68.2354 37.9436C68.4642 38.002 68.7068 37.9679 68.9106 37.8487C69.0372 37.7748 68.995 37.7432 68.9106 37.6694C68.6369 37.1903 68.4209 36.6806 68.2671 36.1508C68.9992 37.199 69.9724 38.0562 71.105 38.6501C73.6263 39.9684 75.673 37.8487 74.6707 38.1545L74.4809 38.2178C73.5888 38.5628 72.6048 38.5889 71.6957 38.2916C72.4339 38.3655 73.1786 38.2436 73.8546 37.9381C74.5307 37.6326 75.1142 37.1543 75.5464 36.5515C75.7615 36.3035 75.8746 35.9832 75.8629 35.6552C75.8606 35.4888 75.8217 35.3251 75.7487 35.1756C75.6757 35.0261 75.5706 34.8945 75.4409 34.7904C75.3174 34.7186 75.1776 34.6792 75.0348 34.6761C74.8919 34.673 74.7506 34.7062 74.6241 34.7726C74.4976 34.839 74.39 34.9364 74.3114 35.0557C74.2329 35.1751 74.1859 35.3124 74.1749 35.4548C74.1069 35.3514 74.0121 35.2684 73.9007 35.2145C73.7893 35.1606 73.6654 35.1378 73.5421 35.1486C73.4188 35.1594 73.3007 35.2034 73.2004 35.2759C73.1001 35.3483 73.0212 35.4466 72.9722 35.5602C72.7191 35.9821 72.9722 36.2246 72.4237 36.6148C70.6619 38.0701 68.9106 36.0875 68.5203 35.5602C68.1299 35.033 68.1299 34.6849 68.6047 35.2333C70.1344 37.2265 71.8329 36.9101 72.0439 36.2879C72.2549 35.6657 71.5797 35.5813 70.0922 35.1068C69.2788 34.9031 68.5758 34.393 68.1299 33.6831C68.9677 34.3297 69.9759 34.7182 71.0311 34.8009C71.2843 34.8009 71.7274 34.8009 71.7379 34.3264C71.7379 33.6831 70.2504 33.9046 69.1322 33.5355C68.5965 33.3122 68.116 32.9748 67.7242 32.5468C67.3324 32.1188 67.0389 31.6104 66.864 31.0572C66.8352 30.9566 66.7999 30.858 66.7585 30.7619C67.0789 31.1241 67.4321 31.4559 67.8134 31.7532C69.2588 32.8078 71.2315 33.1347 72.4026 31.8692C72.5669 31.6986 72.6926 31.4947 72.7713 31.2713C72.8501 31.0479 72.8799 30.8103 72.8589 30.5744C72.8379 30.3385 72.7666 30.1098 72.6496 29.9039C72.5327 29.6979 72.3729 29.5194 72.181 29.3804C72.0213 29.2533 71.8378 29.1594 71.6413 29.1043C71.4447 29.0492 71.2391 29.034 71.0366 29.0595C70.834 29.0851 70.6387 29.1509 70.462 29.2531C70.2853 29.3553 70.1309 29.4918 70.0078 29.6546C69.8209 29.934 69.7212 30.2624 69.7212 30.5985C69.7212 30.9345 69.8209 31.263 70.0078 31.5423C70.0078 31.5423 70.0078 31.6478 69.955 31.69C69.1322 32.0274 67.4759 31.2681 66.8429 30.0659C66.8338 30.0349 66.8338 30.002 66.8429 29.971C66.9832 30.0626 67.136 30.1337 67.2965 30.1819C67.5846 30.3783 67.9186 30.4971 68.266 30.5266C68.6135 30.5562 68.9627 30.4956 69.2799 30.3506C69.3643 30.2979 69.3748 30.2663 69.3643 30.2452C68.9334 30.2844 68.4992 30.2282 68.0926 30.0805C67.686 29.9329 67.3169 29.6974 67.0117 29.391C66.0905 28.5209 65.1029 27.7241 64.0578 27.0076C64.7798 27.0487 65.4671 27.331 66.0094 27.8091C66.8218 28.4313 67.6236 29.2222 68.4148 29.7074C68.5271 29.4831 68.5856 29.2358 68.5856 28.985C68.5856 28.7342 68.5271 28.4868 68.4148 28.2626C67.94 27.1342 66.7163 25.7738 62.9078 25.2887C61.9437 25.1807 60.9859 25.0223 60.0383 24.8141C59.765 24.6546 59.504 24.4748 59.2576 24.2763C61.3595 24.9895 63.592 25.2342 65.7985 24.9934C66.6962 25.0377 67.5663 25.3185 68.3204 25.8075C69.0744 26.2964 69.6857 26.9761 70.0922 27.7775C70.1766 27.9673 70.2504 28.02 70.2821 27.7775C70.327 27.0657 70.1299 26.3596 69.7229 25.7738C69.4697 25.4258 69.7229 25.4996 69.955 25.4996C70.5458 25.4996 70.9151 24.8985 70.7779 24.1814C70.6745 23.747 70.4071 23.3694 70.0315 23.1276C69.6559 22.8858 69.2013 22.7986 68.7629 22.8843C68.1236 23.0228 67.5036 23.2388 66.9167 23.5275C66.1749 23.902 65.3529 24.0903 64.5219 24.0759C64.4164 24.0759 64.3953 23.9916 64.5219 23.9072C65.479 23.2669 66.1692 22.2994 66.4631 21.1864C66.5766 20.7087 66.5357 20.2074 66.3461 19.7545C66.1565 19.3016 65.8281 18.9205 65.4081 18.666C65.2381 18.5567 65.0428 18.4929 64.8411 18.4806C64.6393 18.4683 64.4377 18.5079 64.2557 18.5958C64.0736 18.6836 63.9172 18.8166 63.8012 18.9822C63.6853 19.1477 63.6138 19.3402 63.5936 19.5413C63.5447 20.1519 63.5447 20.7655 63.5936 21.3762C63.6285 21.7356 63.5889 22.0983 63.4772 22.4417C63.3656 22.785 63.1843 23.1017 62.9447 23.3719C62.7051 23.6421 62.4124 23.86 62.0847 24.012C61.7571 24.1639 61.4016 24.2467 61.0405 24.2552C60.8506 24.2552 60.6608 24.1919 60.9245 23.9599C62.4542 22.6417 60.9245 20.4693 60.0594 20.9966C59.9328 21.0704 60.0594 21.1864 60.0594 21.2813C60.252 21.5276 60.339 21.8402 60.3015 22.1506C60.2639 22.4609 60.1048 22.7437 59.859 22.937C59.5359 23.097 59.1749 23.1649 58.8157 23.1333C58.4566 23.1017 58.113 22.9717 57.8229 22.7577L57.7174 22.6944C57.151 22.0796 56.5523 21.4953 55.9239 20.9438L55.7973 20.7646H55.6602C55.4914 20.6169 55.3226 20.4798 55.1538 20.3533C56.6948 20.596 58.2727 20.3177 59.6374 19.5623C61.7474 18.339 61.2515 15.7026 60.9878 16.6201C60.724 17.5376 60.7135 16.831 60.7135 16.5568C60.5658 14.3528 59.3737 14.1207 58.9517 14.2895C58.8367 14.3501 58.7383 14.4381 58.6654 14.5458C58.5925 14.6534 58.5473 14.7774 58.5337 14.9067C58.5202 15.036 58.5387 15.1666 58.5877 15.2871C58.6367 15.4075 58.7146 15.514 58.8146 15.5972C58.266 15.5972 58.1394 16.1561 58.3187 16.5568C58.4981 16.9576 58.7829 16.9154 58.7935 17.5059C58.9833 19.6151 56.6835 19.8893 56.156 19.9104C55.6285 19.9314 55.3543 19.7522 55.9661 19.6784C58.0761 19.5518 58.7196 18.0965 58.3715 17.6219C58.0233 17.1474 57.4431 17.3372 57.1266 17.6219C56.8101 17.9067 56.6835 17.9067 56.7996 17.7063C56.9156 17.5059 57.1266 17.1685 56.7996 16.9154C56.4725 16.6623 55.7446 17.8223 54.985 18.4761C54.4216 18.8188 53.7857 19.0247 53.1283 19.0772L52.9067 18.9823C52.7168 18.898 52.5269 18.8242 52.337 18.7609C51.977 18.4765 51.5649 18.2651 51.1238 18.1387C51.6824 18.121 52.2152 17.8997 52.6219 17.5165C53.392 16.3564 51.9678 15.9452 51.9678 15.9452C52.4554 15.5296 52.8446 15.0109 53.1072 14.4266C53.2934 14.1286 53.5511 13.8819 53.8569 13.7088C54.1628 13.5356 54.507 13.4416 54.8584 13.4353C55.0839 13.4904 55.2787 13.6318 55.401 13.829C55.5233 14.0262 55.5634 14.2635 55.5125 14.4898C55.4915 14.6308 55.4338 14.7637 55.3452 14.8753C55.2565 14.9868 55.1401 15.0731 55.0076 15.1255C54.875 15.1779 54.731 15.1944 54.59 15.1736C54.449 15.1527 54.316 15.0951 54.2043 15.0066C53.8562 14.9433 54.0672 15.1542 54.0672 15.1542C54.1964 15.3039 54.3596 15.4203 54.5432 15.4937C54.7268 15.5671 54.9254 15.5954 55.1222 15.5761C55.4308 15.5362 55.7198 15.4026 55.95 15.1932C56.1802 14.9839 56.3405 14.7089 56.4092 14.4055C56.578 12.6022 55.3543 12.444 55.3543 12.444C54.2043 12.0011 52.9489 13.2876 52.9489 13.2876C52.0205 14.0364 51.683 13.1505 51.683 13.1505C51.1027 11.9272 51.0711 12.5705 51.0711 12.5705C51.0539 13.9493 50.6912 15.3017 50.0161 16.5041C49.4453 17.4035 48.6768 18.1609 47.769 18.7187L47.2837 18.9191C46.7035 18.6976 46.1127 18.4867 45.5114 18.2969C46.4226 18.1048 47.2712 17.6879 47.98 17.0841C49.5625 15.7448 50.4592 13.6567 49.4992 12.1171C49.3562 11.9029 49.1675 11.7231 48.9466 11.5907C48.7257 11.4583 48.4781 11.3765 48.2218 11.3513C47.9655 11.326 47.7067 11.358 47.4642 11.4448C47.2217 11.5317 47.0016 11.6712 46.8195 11.8534C46.4532 12.1235 46.2065 12.5256 46.1317 12.9744C46.0568 13.4233 46.1598 13.8836 46.4187 14.2578C46.6692 14.5154 46.9933 14.6891 47.3465 14.7552C47.6997 14.8213 48.0647 14.7765 48.3915 14.6269C48.4548 14.6269 48.5286 14.6269 48.5392 14.7113C48.6341 15.6182 47.4842 17.1157 46.1549 17.6641C45.7931 17.83 45.4147 17.9573 45.0261 18.0438C43.653 17.6518 42.2341 17.4426 40.8062 17.4216C40.8062 17.4216 41.6818 16.947 44.889 17.2317C45.6757 17.0545 46.381 16.6204 46.8934 15.9979C46.9565 15.738 46.9565 15.4668 46.8934 15.207C46.8934 15.0171 46.7774 15.1015 46.7563 15.207C46.5459 15.6812 46.2281 16.1 45.8279 16.4303C45.6802 16.5568 45.5747 16.599 45.6063 16.4303C45.6136 16.2592 45.5855 16.0885 45.5238 15.9289C45.4621 15.7692 45.3681 15.6239 45.2476 15.5022C45.1632 15.4179 45.121 15.4073 45.0788 15.4284C45.0717 15.2949 45.0717 15.1612 45.0788 15.0277C45.1856 14.0023 45.4489 12.9994 45.8595 12.0538C47.1271 10.0354 48.8461 8.3387 50.8812 7.09728C49.5437 6.89635 48.1788 7.18873 47.0411 7.91985C45.0578 5.03032 43.3487 7.26602 43.3487 7.26602C44.7624 7.71948 45.5852 8.93224 44.8151 10.0501C44.7202 10.0501 43.412 10.8938 43.412 10.8938C43.0765 10.3702 42.9175 9.75302 42.9584 9.13261C43.0696 9.00804 43.1299 8.84614 43.1272 8.67914C43.1068 8.51869 43.0286 8.37117 42.9072 8.26423C42.7858 8.1573 42.6296 8.0983 42.4678 8.0983C42.306 8.0983 42.1498 8.1573 42.0284 8.26423C41.907 8.37117 41.8288 8.51869 41.8084 8.67914C41.7975 8.73841 41.7975 8.79916 41.8084 8.85842C41.4127 9.45851 40.9208 9.98938 40.3526 10.4297C40.1955 9.94282 39.9756 9.47842 39.6985 9.04825C39.9094 8.7863 40.1385 8.53961 40.3842 8.31004C43.6441 5.14632 42.146 2.39388 42.0827 2.55207C41.67 3.15454 41.1963 3.7129 40.6691 4.2183C39.382 5.55761 39.6141 6.32744 39.1499 7.06565C39.055 7.22383 39.1499 7.18165 38.8862 7.16056C38.6224 7.13947 38.6646 6.83364 38.6646 6.65436C38.6646 6.47509 38.8545 5.75798 38.8545 5.67361C38.8913 5.53088 38.9519 5.39539 39.0339 5.27287C39.266 4.93541 39.6458 4.67176 39.7196 4.2183C40.0466 2.41497 37.9262 0 37.9262 0C37.9262 0 35.8162 2.4677 36.1327 4.27103C36.2066 4.67176 36.5863 4.93541 36.8184 5.3256C36.888 5.43323 36.9413 5.55048 36.9767 5.67361C36.9767 5.75798 37.1666 6.62273 37.1666 6.65436C37.1666 6.686 37.1666 7.16056 36.945 7.16056C36.7235 7.16056 36.7762 7.22383 36.6813 7.06565C36.2277 6.27472 36.4492 5.55761 35.1621 4.2183C34.6363 3.69911 34.1661 3.12655 33.759 2.50989C33.6957 2.3517 32.1977 5.10414 35.4575 8.26786C35.7033 8.49743 35.9324 8.74412 36.1433 9.00606C35.8899 9.45472 35.7151 9.94333 35.6263 10.4508C35.0102 10.0355 34.4561 9.53482 33.9806 8.96388C34.0448 8.86713 34.078 8.75306 34.0755 8.63696C34.0552 8.47651 33.977 8.32898 33.8556 8.22205C33.7342 8.11512 33.578 8.05612 33.4162 8.05612C33.2544 8.05612 33.0981 8.11512 32.9767 8.22205C32.8553 8.32898 32.7771 8.47651 32.7568 8.63696C32.7586 8.73276 32.7801 8.82717 32.82 8.91427C32.8599 9.00137 32.9174 9.0793 32.9889 9.14316C32.99 9.78501 32.872 10.4215 32.6408 11.0203C32.1323 10.641 31.6041 10.289 31.0583 9.96572C30.2882 8.84788 31.1111 7.63512 32.5247 7.18165C32.5247 7.18165 30.8157 4.94595 28.8323 7.83549C27.6946 7.10436 26.3297 6.81199 24.9922 7.01292C29.3809 9.97627 30.5625 12.5072 30.7629 14.1524C30.7468 14.578 30.6938 15.0014 30.6047 15.4179C30.5184 15.5064 30.4439 15.6056 30.3831 15.7132C30.8972 16.343 31.6059 16.7844 32.3981 16.9681C33.7087 16.9957 35.0161 17.1084 36.312 17.3056C34.9517 17.3118 33.5963 17.4709 32.2715 17.7801C31.0439 17.4612 29.993 16.6686 29.3493 15.5761C29.2567 15.4224 29.1722 15.264 29.0961 15.1015C29.0961 15.0277 28.9906 14.9433 28.9589 15.1015C28.9049 15.5599 28.9742 16.0243 29.1596 16.447C29.3451 16.8696 29.64 17.2352 30.0139 17.5059C30.1194 17.5798 30.1932 17.7274 30.0139 17.6536C28.558 17.2106 27.2604 15.5444 27.3659 14.6059C27.3659 14.4898 27.4503 14.4898 27.5031 14.5215C27.8317 14.6704 28.1981 14.7148 28.5528 14.6488C28.9075 14.5828 29.2334 14.4095 29.4864 14.1524C29.7534 13.7808 29.8633 13.319 29.7922 12.867C29.7211 12.415 29.4748 12.0092 29.1066 11.7374C28.9256 11.5554 28.7063 11.4159 28.4646 11.3291C28.2229 11.2423 27.965 11.2103 27.7094 11.2356C27.4539 11.2608 27.2072 11.3426 26.9872 11.475C26.7672 11.6074 26.5794 11.7871 26.4375 12.0011C25.4775 13.5407 26.3742 15.6288 27.9567 16.9681C28.69 17.5943 29.5733 18.0194 30.5203 18.202C29.94 18.3812 29.3704 18.5816 28.8007 18.8031L28.3259 18.6027C27.4127 18.0483 26.64 17.2904 26.0683 16.3881C25.4006 15.1827 25.0384 13.8322 25.0133 12.4545C25.0133 12.4545 25.0133 11.8112 24.412 13.0345C24.412 13.0345 24.0744 13.9204 23.146 13.1716C23.146 13.1716 21.8906 11.885 20.7407 12.328C20.7407 12.328 19.4747 12.4862 19.6857 14.2895C19.7545 14.5929 19.9148 14.8679 20.145 15.0772C20.3752 15.2866 20.6641 15.4202 20.9728 15.4601C21.1696 15.4794 21.3681 15.4511 21.5517 15.3777C21.7353 15.3043 21.8986 15.1879 22.0278 15.0382C22.0278 15.0382 22.2388 14.8273 21.8906 14.8906C21.7789 14.9791 21.6459 15.0367 21.5049 15.0576C21.3639 15.0784 21.2199 15.0619 21.0874 15.0095C20.9548 14.9571 20.8384 14.8708 20.7498 14.7593C20.6611 14.6477 20.6034 14.5148 20.5825 14.3738C20.5316 14.1475 20.5716 13.9102 20.6939 13.713C20.8162 13.5158 21.0111 13.3744 21.2365 13.3193C21.5824 13.3268 21.9211 13.4193 22.2228 13.5884C22.5245 13.7576 22.78 13.9984 22.9667 14.2895C23.2283 14.8715 23.6135 15.3897 24.0955 15.8081C24.0955 15.8081 22.6818 16.2193 23.4414 17.3794C23.8534 17.7609 24.3888 17.9817 24.95 18.0016C24.509 18.128 24.0968 18.3394 23.7368 18.6238C23.5469 18.6871 23.357 18.7609 23.1671 18.8452L22.8928 18.9718C22.2354 18.9192 21.5995 18.7133 21.0361 18.3707C20.2343 17.7168 19.6857 16.4935 19.211 16.8099C18.7363 17.1263 19.0949 17.3899 19.211 17.6008C19.327 17.8118 19.211 17.8223 18.8945 17.5165C18.578 17.2107 18.0927 16.8837 17.6496 17.5165C17.2066 18.1492 17.8817 19.4463 20.0444 19.5729C20.6669 19.6467 20.4242 19.826 19.8651 19.8049C19.3059 19.7838 17.0378 19.478 17.2171 17.4005C17.2171 16.8099 17.523 16.8626 17.7024 16.4514C17.8817 16.0401 17.7551 15.4495 17.2066 15.4917C17.3042 15.4072 17.38 15.3004 17.4275 15.1803C17.475 15.0603 17.4927 14.9305 17.4793 14.8021C17.4658 14.6737 17.4215 14.5504 17.3502 14.4428C17.2788 14.3352 17.1825 14.2464 17.0694 14.184C16.6474 14.0153 15.4553 14.2473 15.3076 16.4514C15.3076 16.7255 15.3076 17.4321 15.0228 16.5146C14.7379 15.5972 14.2315 18.2336 16.3837 19.4569C17.7479 20.2138 19.3263 20.4922 20.8673 20.2478C20.6879 20.3758 20.5154 20.5131 20.3504 20.6591H20.2132L20.0866 20.8384C19.4325 21.4079 18.8418 22.009 18.2932 22.589L18.1982 22.6523C17.9081 22.8663 17.5646 22.9962 17.2054 23.0278C16.8462 23.0595 16.4852 22.9915 16.1621 22.8315C15.9163 22.6383 15.7572 22.3554 15.7196 22.0451C15.6821 21.7347 15.7691 21.4222 15.9617 21.1758C16.0461 21.0809 16.1305 20.9649 15.9617 20.8911C15.1177 20.3638 13.5775 22.5362 15.0966 23.8545C15.3709 24.0865 15.1705 24.1708 14.9806 24.1497C14.6192 24.1374 14.2643 24.0506 13.9381 23.8948C13.6118 23.739 13.3213 23.5176 13.0846 23.2443C12.8479 22.9711 12.6702 22.652 12.5626 22.307C12.455 21.9619 12.4198 21.5984 12.4592 21.2391C12.5256 20.6298 12.5432 20.0162 12.5119 19.4042C12.489 19.2045 12.4158 19.0139 12.2993 18.85C12.1829 18.6862 12.0268 18.5545 11.8457 18.4671C11.6647 18.3798 11.4644 18.3396 11.2636 18.3504C11.0628 18.3612 10.8681 18.4226 10.6974 18.5289C10.2762 18.7822 9.9468 19.1631 9.75708 19.6164C9.56735 20.0697 9.52719 20.5716 9.64242 21.0493C9.93661 22.1679 10.631 23.1397 11.5941 23.7806C11.6996 23.865 11.6785 23.9388 11.5941 23.9494C10.7631 23.9646 9.94091 23.7763 9.19934 23.401C8.61174 23.1139 7.99195 22.8979 7.35314 22.7577C7.12181 22.7075 6.88263 22.7053 6.6504 22.7512C6.41817 22.7971 6.19783 22.8901 6.00302 23.0245C5.80821 23.159 5.64307 23.3319 5.51782 23.5327C5.39257 23.7335 5.30987 23.9579 5.27485 24.1919C5.1377 24.909 5.49639 25.5101 6.08718 25.5101C6.31927 25.5101 6.57246 25.4363 6.32982 25.7843C5.91577 26.3668 5.71802 27.0754 5.77069 27.788C5.77069 28.0306 5.86563 27.9779 5.95003 27.788C6.35736 26.9851 6.97029 26.3045 7.72639 25.8155C8.48248 25.3264 9.35473 25.0464 10.2543 25.004C12.4492 25.2301 14.667 24.9746 16.7529 24.2552C16.512 24.4561 16.2544 24.6361 15.9828 24.793C15.0352 25.0012 14.0774 25.1596 13.1133 25.2676C9.30483 25.7527 8.08107 27.1131 7.59578 28.2415C7.4858 28.4664 7.42864 28.7135 7.42864 28.9639C7.42864 29.2143 7.4858 29.4613 7.59578 29.6863C8.43976 29.2328 9.20989 28.4735 10.0222 27.8197C10.5646 27.3415 11.2519 27.0593 11.9739 27.0182C10.9268 27.732 9.93895 28.529 9.01999 29.4015C8.7139 29.7068 8.34471 29.9414 7.93831 30.089C7.53191 30.2366 7.09814 30.2935 6.66741 30.2557C6.66741 30.2557 6.66741 30.2557 6.75181 30.3612C7.06736 30.5052 7.41475 30.5653 7.76037 30.5358C8.10598 30.5062 8.43811 30.3879 8.7246 30.1925C8.88671 30.1485 9.04012 30.0771 9.17824 29.9815C9.18449 30.0129 9.18449 30.0451 9.17824 30.0765C8.53471 31.2787 6.88895 32.038 6.01333 31.7005C5.91838 31.7005 5.93948 31.595 6.01333 31.5529C6.2002 31.2735 6.29995 30.945 6.29995 30.609C6.29995 30.273 6.2002 29.9445 6.01333 29.6652C5.89024 29.5024 5.7358 29.3659 5.55912 29.2637C5.38243 29.1615 5.18706 29.0956 4.98454 29.0701C4.78201 29.0445 4.57641 29.0598 4.37986 29.1149C4.18331 29.17 3.99978 29.2639 3.84009 29.391C3.6475 29.5291 3.48681 29.707 3.36889 29.9125C3.25097 30.1181 3.17857 30.3466 3.15657 30.5825C3.13456 30.8184 3.16348 31.0563 3.24136 31.2801C3.31924 31.5039 3.44427 31.7084 3.608 31.8798C4.78956 33.1453 6.77291 32.8605 8.19712 31.7638C8.5785 31.4664 8.93165 31.1346 9.25209 30.7725L9.15714 31.0678C8.97971 31.6196 8.68521 32.1268 8.29376 32.5545C7.90232 32.9822 7.42314 33.3204 6.88895 33.546C5.71794 33.9151 4.21988 33.7464 4.21988 34.3369C4.21988 34.8009 4.67352 34.8009 4.93726 34.8115C5.95216 34.6907 6.91313 34.289 7.71183 33.6515C7.26601 34.3613 6.56293 34.8714 5.74959 35.0751C4.26208 35.5497 3.63965 35.6024 3.79789 36.2563C3.95614 36.9101 5.69684 37.1948 7.22654 35.2017C7.70128 34.6533 7.71183 34.9908 7.32149 35.5286C6.93115 36.0664 5.21155 38.0385 3.40755 36.5832C2.88007 36.2141 3.12271 35.9715 2.86952 35.5286C2.61633 35.0857 1.99389 34.8748 1.66685 35.4231C1.64737 35.289 1.59583 35.1615 1.51659 35.0514C1.43735 34.9414 1.33275 34.8521 1.21164 34.791C1.09054 34.73 0.956497 34.699 0.820876 34.7007C0.685256 34.7025 0.552049 34.7368 0.43254 34.8009C0.305573 34.9036 0.201502 35.0318 0.127011 35.177C0.0525197 35.3223 0.00925708 35.4816 2.24025e-06 35.6446C-0.00209492 35.9711 0.109834 36.2881 0.316493 36.541C0.758484 37.1465 1.35139 37.6257 2.03622 37.931C2.72104 38.2363 3.4739 38.357 4.21988 38.281C3.31439 38.5784 2.3337 38.5523 1.44531 38.2072L1.25542 38.1439C0.253195 37.8381 2.31039 39.9578 4.81066 38.6396C5.94446 38.0433 6.92064 37.1868 7.65908 36.1403C7.50052 36.6684 7.28473 37.1776 7.01555 37.6588C6.95225 37.7327 6.91005 37.7643 7.01555 37.8381C7.22334 37.957 7.46901 37.991 7.70128 37.933C7.78568 37.933 7.78568 37.933 7.70128 38.0807C7.57348 38.3865 7.37022 38.655 7.1105 38.8611C7.1105 38.8611 7.0261 38.9454 7.1105 38.9454C7.40897 38.9127 7.69212 38.7964 7.9273 38.6098C8.16249 38.4232 8.34013 38.174 8.43976 37.8909C8.43976 37.817 8.53471 37.7432 8.54526 37.8909C8.56631 38.3497 8.44746 38.8041 8.20444 39.1939C7.96141 39.5837 7.60569 39.8906 7.18435 40.0738C7.1105 40.0738 7.09995 40.0738 7.09995 39.9894C7.12017 39.7444 7.06796 39.4989 6.94981 39.2833C6.83165 39.0677 6.65275 38.8915 6.43532 38.7767C6.29781 38.7166 6.14959 38.6847 5.99951 38.6831C5.84943 38.6814 5.70055 38.71 5.56174 38.767C5.42294 38.8241 5.29705 38.9085 5.19157 39.0153C5.0861 39.122 5.00319 39.2489 4.94781 39.3883C4.87552 39.5463 4.83773 39.7179 4.83695 39.8916C4.83617 40.0654 4.87242 40.2373 4.94329 40.3959C5.01415 40.5546 5.118 40.6963 5.24794 40.8117C5.37787 40.9271 5.5309 41.0135 5.69684 41.0651C6.30878 41.1867 6.94411 41.0772 7.47997 40.7578C8.01584 40.4383 8.41419 39.9316 8.598 39.3356C8.598 39.2196 8.69295 39.0825 8.7457 38.9243V39.0192C9.03951 38.5781 9.26368 38.0943 9.41033 37.585V37.4901C9.41033 37.3741 9.47363 37.353 9.54748 37.4901L9.69517 37.7221C9.87452 37.9225 10.1172 38.2283 10.402 38.5869C10.8214 39.0323 11.3481 39.3627 11.9317 39.5465C12.2793 39.6552 12.6546 39.6327 12.9867 39.4833C12.8682 40.456 12.8083 41.435 12.8073 42.415C12.8073 42.8895 12.8073 43.3746 12.8073 43.8492C12.5205 43.7487 12.208 43.7487 11.9212 43.8492C11.3375 44.033 10.8108 44.3634 10.3915 44.8089C10.1066 45.1674 9.86397 45.4732 9.68462 45.6736L9.53693 45.9056C9.46308 46.0216 9.39978 46.0005 9.39978 45.9056V45.8002C9.26364 45.2658 9.04282 44.7567 8.7457 44.2921V44.3659C8.7457 44.2077 8.6402 44.0707 8.598 43.9547C8.42054 43.3521 8.0253 42.8371 7.48912 42.5097C6.95294 42.1822 6.31413 42.0658 5.69684 42.183C5.5309 42.2346 5.37787 42.321 5.24794 42.4364C5.118 42.5518 5.01415 42.6935 4.94329 42.8522C4.87242 43.0108 4.83617 43.1827 4.83695 43.3564C4.83773 43.5302 4.87552 43.7017 4.94781 43.8597C5.00319 43.9992 5.0861 44.1261 5.19157 44.2328C5.29705 44.3395 5.42294 44.424 5.56174 44.481C5.70055 44.5381 5.84943 44.5667 5.99951 44.565C6.14959 44.5634 6.29781 44.5315 6.43532 44.4714C6.65367 44.3576 6.83336 44.1817 6.95166 43.9658C7.06997 43.7499 7.12157 43.5038 7.09995 43.2586C7.09995 43.2586 7.09995 43.1637 7.18435 43.1743C7.61381 43.3486 7.97953 43.6503 8.23228 44.0387C8.48502 44.4271 8.61266 44.8836 8.598 45.3467C8.598 45.5154 8.52416 45.4311 8.49251 45.3467C8.39288 45.0635 8.21524 44.8143 7.98005 44.6277C7.74486 44.4411 7.46171 44.3248 7.16325 44.2921C7.0261 44.2921 7.0683 44.3554 7.16325 44.3765C7.42579 44.5841 7.62945 44.8568 7.75403 45.1674C7.75403 45.2729 7.75403 45.3572 7.75403 45.3151C7.63998 45.2819 7.52037 45.2723 7.40249 45.2868C7.2846 45.3013 7.1709 45.3396 7.0683 45.3994C6.9417 45.4732 6.9839 45.5049 7.0683 45.5787C7.33748 46.06 7.55327 46.5692 7.71183 47.0973C6.97339 46.0508 5.99721 45.1942 4.86341 44.5979C2.35258 43.2797 0.305943 45.3994 1.30816 45.0936H1.49806C2.36651 44.748 3.32728 44.7108 4.21988 44.9881C3.47411 44.9143 2.72197 45.036 2.03752 45.3411C1.35308 45.6462 0.759934 46.1243 0.316493 46.7282C0.112868 46.9827 0.00133126 47.2986 2.24025e-06 47.6246C0.00186931 47.795 0.0416491 47.963 0.116459 48.1162C0.19127 48.2694 0.299237 48.4041 0.43254 48.5104C0.555493 48.5853 0.695773 48.6272 0.839704 48.6318C0.983634 48.6364 1.1263 48.6036 1.25381 48.5367C1.38131 48.4698 1.48929 48.371 1.56722 48.25C1.64516 48.1289 1.69039 47.9897 1.6985 47.846C2.02554 48.3944 2.64798 48.1519 2.90117 47.7406C3.15436 47.3293 2.90117 47.0762 3.4392 46.686C5.21155 45.2307 6.9628 47.2133 7.35314 47.7406C7.74348 48.2679 7.73293 48.6053 7.25819 48.0569C5.72849 46.0638 4.02999 46.3802 3.82954 47.0024C3.6291 47.6246 4.29373 47.7089 5.78124 48.1729C6.59457 48.3766 7.29766 48.8868 7.74348 49.5966C6.93659 48.9856 5.97631 48.6097 4.96891 48.5104C4.68407 48.5104 4.21988 48.5104 4.21988 48.9322C4.21988 49.5861 5.70739 49.3541 6.83621 49.7232C7.37224 49.9487 7.85277 50.2881 8.24444 50.7179C8.63611 51.1477 8.92955 51.6575 9.10439 52.212L9.19934 52.4967C8.8789 52.1346 8.52575 51.8027 8.14437 51.5054C6.70961 50.4508 4.73682 50.1239 3.55525 51.3894C3.39152 51.5607 3.26649 51.7652 3.18861 51.989C3.11073 52.2128 3.08181 52.4507 3.10382 52.6867C3.12582 52.9226 3.19823 53.1511 3.31615 53.3566C3.43407 53.5622 3.59475 53.74 3.78734 53.8782C3.94645 54.0067 4.12988 54.1018 4.32663 54.1577C4.52339 54.2136 4.72942 54.2293 4.93236 54.2037C5.13531 54.1781 5.33099 54.1117 5.50768 54.0087C5.68436 53.9057 5.83841 53.768 5.96058 53.604C6.14745 53.3247 6.2472 52.9962 6.2472 52.6602C6.2472 52.3241 6.14745 51.9956 5.96058 51.7163C5.96058 51.7163 5.96058 51.6109 5.96058 51.5687C6.79401 51.2312 8.43976 51.9905 9.12549 53.1927C9.13231 53.2275 9.13231 53.2634 9.12549 53.2982C8.99024 53.1954 8.83611 53.1201 8.67185 53.0767C8.38536 52.8812 8.05323 52.763 7.70762 52.7334C7.362 52.7039 7.01461 52.764 6.69906 52.908C6.60411 52.908 6.59356 52.9924 6.61466 53.0134C7.04517 52.9786 7.47814 53.0368 7.8841 53.1842C8.29007 53.3316 8.6595 53.5647 8.96724 53.8676C9.8862 54.7402 10.874 55.5372 11.9212 56.251C11.1992 56.2099 10.5119 55.9277 9.96946 55.4495C9.20989 54.8379 8.43976 54.0364 7.61688 53.5513C7.5069 53.7762 7.44973 54.0233 7.44973 54.2737C7.44973 54.524 7.5069 54.7711 7.61688 54.996C8.10217 56.1244 9.32593 57.4848 13.1344 57.9699C13.7252 58.0543 14.8751 58.1809 16.0039 58.4445C16.2755 58.6015 16.5331 58.7814 16.774 58.9823C14.6759 58.269 12.4468 58.0242 10.2438 58.2652C9.34418 58.2228 8.47193 57.9428 7.71584 57.4537C6.95974 56.9647 6.34681 56.284 5.93948 55.4811C5.85508 55.2913 5.79179 55.2386 5.76014 55.4811C5.71053 56.195 5.91204 56.9038 6.32982 57.4848C6.57246 57.8328 6.32982 57.759 6.08718 57.759C5.49639 57.759 5.1377 58.3601 5.27485 59.0772C5.37824 59.5117 5.64571 59.8893 6.02128 60.1311C6.39685 60.3728 6.85142 60.46 7.28984 60.3744C7.92866 60.2341 8.54844 60.0182 9.13604 59.7311C9.88105 59.3654 10.7008 59.1777 11.5308 59.1827C11.6363 59.1827 11.6574 59.2671 11.5308 59.3514C10.5677 59.9924 9.87331 60.9642 9.57913 62.0828C9.46389 62.5604 9.50405 63.0624 9.69378 63.5157C9.88351 63.9689 10.2129 64.3499 10.6341 64.6032C10.804 64.7093 10.998 64.7708 11.198 64.7822C11.398 64.7935 11.5977 64.7543 11.7785 64.6681C11.9594 64.5819 12.1156 64.4516 12.2327 64.2891C12.3498 64.1266 12.4241 63.9372 12.4486 63.7385C12.4801 63.1229 12.4625 62.5057 12.3959 61.893C12.3581 61.534 12.3944 61.1711 12.5026 60.8267C12.6108 60.4823 12.7886 60.1638 13.025 59.891C13.2614 59.6181 13.5513 59.3966 13.8768 59.2403C14.2023 59.084 14.5564 58.9962 14.9173 58.9823C15.1072 58.9823 15.3076 59.0456 15.0333 59.2776C13.5142 60.5958 15.0333 62.7788 15.8984 62.241C16.025 62.1671 15.8984 62.0511 15.8984 61.9562C15.7058 61.7099 15.6188 61.3973 15.6563 61.087C15.6939 60.7766 15.853 60.4938 16.0988 60.3005C16.4219 60.1405 16.7829 60.0726 17.1421 60.1043C17.5013 60.1359 17.8448 60.2658 18.1349 60.4798L18.2299 60.5431C18.7785 61.1231 19.3692 61.7242 20.0233 62.2937L20.1499 62.473H20.2871C20.4521 62.619 20.6246 62.7563 20.804 62.8843C19.263 62.6399 17.6846 62.9183 16.3204 63.6752C14.2104 64.8985 14.7063 67.5455 14.9595 66.6174C15.2127 65.6894 15.2443 66.4065 15.2443 66.6807C15.392 68.8848 16.5841 69.1168 17.0061 68.9481C17.1192 68.8857 17.2155 68.7969 17.2869 68.6893C17.3582 68.5816 17.4025 68.4584 17.416 68.33C17.4294 68.2016 17.4117 68.0718 17.3642 67.9518C17.3167 67.8317 17.2409 67.7249 17.1433 67.6404C17.6918 67.6404 17.8184 67.0815 17.6391 66.6807C17.4597 66.28 17.1644 66.3222 17.1538 65.7421C16.9745 63.633 19.2637 63.3483 19.8018 63.3272C20.3398 63.3061 20.6036 63.4854 19.9811 63.5697C17.8184 63.6963 17.2382 65.141 17.5863 65.6156C17.9345 66.0902 18.5147 65.9003 18.8312 65.6156C19.1477 65.3309 19.2637 65.3309 19.1477 65.5312C19.0317 65.7316 18.8207 66.0691 19.1477 66.3222C19.4747 66.5753 20.2027 65.4152 20.9728 64.7614C21.5362 64.4187 22.1721 64.2129 22.8295 64.1603L23.1038 64.2868C23.2937 64.3712 23.4836 64.445 23.6735 64.5083C24.0335 64.7927 24.4457 65.004 24.8867 65.1305C24.3255 65.1504 23.7901 65.3712 23.3781 65.7527C22.6185 66.9127 24.0322 67.324 24.0322 67.324C23.5439 67.7473 23.1549 68.273 22.8928 68.8637C22.7061 69.1548 22.4507 69.3955 22.1489 69.5647C21.8472 69.7339 21.5085 69.8264 21.1627 69.8339C20.9372 69.7788 20.7424 69.6374 20.6201 69.4402C20.4978 69.243 20.4578 69.0057 20.5086 68.7793C20.5296 68.6384 20.5873 68.5055 20.6759 68.3939C20.7646 68.2823 20.881 68.196 21.0135 68.1437C21.1461 68.0913 21.2901 68.0747 21.4311 68.0956C21.5721 68.1165 21.7051 68.1741 21.8168 68.2626C22.1649 68.3259 21.9539 68.1149 21.9539 68.1149C21.8248 67.9658 21.6612 67.8504 21.4774 67.7787C21.2935 67.707 21.095 67.6813 20.8989 67.7037C20.5906 67.7399 20.3012 67.8709 20.0706 68.0788C19.84 68.2866 19.6797 68.5609 19.6119 68.8637C19.4325 70.667 20.6669 70.8252 20.6669 70.8252C21.8168 71.2681 23.0722 69.9815 23.0722 69.9815C24.0006 69.2328 24.3381 70.1186 24.3381 70.1186C24.9078 71.3419 24.9395 70.6987 24.9395 70.6987C24.9645 69.321 25.3267 67.9705 25.9944 66.7651C26.3561 66.1713 26.8163 65.6435 27.3554 65.2043C27.6086 65.3203 27.8723 65.4469 28.136 65.5523C27.9385 66.1466 27.984 66.7948 28.2626 67.3557C28.3698 67.5508 28.5188 67.7199 28.6991 67.8507C28.8793 67.9815 29.0863 68.0707 29.3052 68.1121C29.524 68.1534 29.7493 68.1458 29.9649 68.0898C30.1804 68.0337 30.3809 67.9307 30.5519 67.788C30.7436 67.6589 30.9056 67.4906 31.0275 67.2943C31.1493 67.098 31.2281 66.8781 31.2587 66.6491C32.5558 67.0043 33.8785 67.2581 35.2149 67.4084C34.8539 67.7491 34.4214 68.0049 33.9489 68.1571C33.7485 68.2309 33.7696 68.2309 33.9489 68.368C34.2481 68.5279 34.5887 68.5933 34.9259 68.5556C35.263 68.518 35.5808 68.379 35.8373 68.1571C35.9428 68.0833 35.9639 68.1571 35.9217 68.2415C35.6173 69.0326 35.1162 69.733 34.4659 70.2768C34.225 70.4876 33.9393 70.6408 33.6304 70.7248C33.3215 70.8089 32.9975 70.8216 32.683 70.7619C32.2188 70.6248 31.8284 70.0764 32.1133 69.6335C32.1766 69.5492 32.2188 69.4543 32.1133 69.4226C31.2271 69.2012 30.362 71.015 32.0289 71.6689C32.3243 71.7849 32.1766 71.8798 32.0289 71.9009C31.4264 72.0555 30.7877 71.9761 30.2415 71.6786C29.6953 71.3812 29.2822 70.8878 29.0855 70.2979C29.0058 69.8498 28.8785 69.4114 28.7057 68.9902C28.6093 68.8444 28.4834 68.7203 28.3362 68.6259C28.189 68.5315 28.0237 68.4689 27.8509 68.4421C27.6781 68.4153 27.5015 68.4249 27.3326 68.4702C27.1637 68.5156 27.0062 68.5957 26.8701 68.7055C26.5544 68.9071 26.3309 69.2249 26.2479 69.5901C26.165 69.9552 26.2293 70.3384 26.427 70.6565C27.0174 71.4408 27.8589 71.9991 28.8112 72.2383C28.9273 72.2383 28.9273 72.3332 28.8112 72.3543C28.0591 72.5049 27.2846 72.5049 26.5325 72.3543C25.936 72.2603 25.3321 72.2215 24.7285 72.2383C23.6735 72.3754 23.1882 72.9871 23.2304 73.5144C23.238 73.6395 23.2728 73.7616 23.3322 73.872C23.3917 73.9824 23.4745 74.0785 23.5749 74.1538C23.6752 74.229 23.7908 74.2816 23.9135 74.3077C24.0361 74.3339 24.1631 74.3331 24.2854 74.3053C24.4858 74.3053 24.6968 74.1577 24.5597 74.4529C24.4499 74.691 24.3931 74.9501 24.3931 75.2122C24.3931 75.4744 24.4499 75.7334 24.5597 75.9715C24.6441 76.1297 24.6968 76.0875 24.7285 75.9715C24.9717 75.2787 25.3916 74.6613 25.9466 74.1804C26.5017 73.6995 27.1728 73.3718 27.8934 73.2296C30.1098 73.0011 32.2472 72.2805 34.1494 71.1205C35.3927 70.258 36.2722 68.9656 36.618 67.4927H37.3881C37.0937 68.9075 36.4642 70.2311 35.5525 71.3525C34.3841 72.5768 32.9361 73.4996 31.3326 74.0416C31.3326 74.0416 30.5941 74.3264 32.2399 74.5267C32.2399 74.5267 33.4214 74.59 32.894 75.9715C32.894 75.9715 31.839 77.933 32.8096 79.1352C32.8096 79.1352 33.4847 80.5589 35.5314 79.6625C35.8638 79.4699 36.1279 79.1785 36.2867 78.8288C36.4456 78.4791 36.4913 78.0885 36.4175 77.7116C36.365 77.4777 36.2571 77.2599 36.1029 77.0764C35.9487 76.8929 35.7527 76.7491 35.5314 76.657C35.5314 76.657 35.2043 76.4777 35.4153 76.8679C35.5508 76.9739 35.6583 77.1113 35.7285 77.2683C35.7986 77.4253 35.8293 77.5971 35.8179 77.7686C35.8064 77.9402 35.7532 78.1064 35.6628 78.2526C35.5724 78.3989 35.4476 78.5209 35.2993 78.608C35.1786 78.6815 35.0445 78.73 34.9047 78.7507C34.765 78.7714 34.6225 78.7638 34.4857 78.7284C34.3489 78.693 34.2207 78.6304 34.1085 78.5445C33.9964 78.4586 33.9026 78.3511 33.8329 78.2283C33.7175 77.8369 33.6985 77.4235 33.7775 77.0232C33.8565 76.6229 34.0311 76.2476 34.2865 75.9293C35.2426 74.9275 36.0717 73.8118 36.7551 72.6074C36.6229 74.2714 37.0539 75.9316 37.9789 77.3214C38.5098 76.6446 38.9007 75.8691 39.1289 75.0399C39.3571 74.2107 39.418 73.3444 39.3082 72.4914C39.97 73.7292 40.7775 74.8833 41.7135 75.9293C41.9811 76.2494 42.1655 76.6306 42.2501 77.039C42.3348 77.4475 42.3172 77.8705 42.1988 78.2705C42.129 78.3947 42.0349 78.5036 41.9219 78.5904C41.8089 78.6773 41.6795 78.7403 41.5415 78.7758C41.4034 78.8113 41.2596 78.8185 41.1188 78.7969C40.9779 78.7753 40.8429 78.7253 40.7218 78.6501C40.5741 78.5622 40.4502 78.4395 40.3608 78.2927C40.2714 78.1459 40.2192 77.9795 40.2088 77.808C40.1984 77.6365 40.2301 77.465 40.3011 77.3085C40.3722 77.152 40.4804 77.0152 40.6163 76.9101C40.8273 76.5199 40.4897 76.6992 40.4897 76.6992C40.2689 76.7903 40.0736 76.9341 39.921 77.1179C39.7684 77.3017 39.6631 77.52 39.6141 77.7538C39.5394 78.1296 39.5836 78.5193 39.7405 78.8689C39.8974 79.2185 40.1592 79.5106 40.4897 79.7047C42.5997 80.6011 43.2116 79.1774 43.2116 79.1774C44.1716 77.9963 43.1377 76.0137 43.1377 76.0137C42.6102 74.6322 43.7812 74.5689 43.7812 74.5689C45.4375 74.3686 44.6991 74.0838 44.6991 74.0838C43.0954 73.5422 41.6473 72.6193 40.4792 71.3947C39.5701 70.2729 38.9442 68.9491 38.6541 67.5349H39.4242C39.7488 69.0254 40.6225 70.3393 41.8717 71.2154C43.7739 72.3754 45.9113 73.096 48.1277 73.3245C48.8483 73.4667 49.5194 73.7944 50.0745 74.2753C50.6295 74.7562 51.0494 75.3736 51.2926 76.0664C51.2926 76.2141 51.377 76.2563 51.4614 76.0664C51.5712 75.8283 51.628 75.5693 51.628 75.3071C51.628 75.045 51.5712 74.7859 51.4614 74.5479C51.3243 74.2526 51.5353 74.358 51.7357 74.4002C51.8579 74.4261 51.9842 74.4256 52.1062 74.3987C52.2281 74.3718 52.3429 74.3191 52.4429 74.2442C52.5428 74.1693 52.6255 74.0739 52.6855 73.9644C52.7455 73.8549 52.7814 73.7338 52.7907 73.6093C52.7907 73.082 52.3792 72.4703 51.2821 72.3332C50.682 72.3164 50.0816 72.3552 49.4886 72.4492C48.7365 72.5998 47.962 72.5998 47.2099 72.4492C47.1149 72.4492 47.1149 72.3649 47.2099 72.3332C48.1748 72.0729 49.0159 71.4787 49.5836 70.6565C49.6886 70.5017 49.7618 70.3277 49.799 70.1444C49.8362 69.9612 49.8367 69.7724 49.8004 69.5889C49.7641 69.4055 49.6917 69.2311 49.5875 69.0758C49.4833 68.9206 49.3493 68.7875 49.1932 68.6844C49.058 68.5748 48.9013 68.4949 48.7332 68.4496C48.5651 68.4043 48.3894 68.3948 48.2174 68.4216C48.0454 68.4485 47.881 68.5111 47.7347 68.6054C47.5884 68.6997 47.4635 68.8236 47.3681 68.9691C47.197 69.3918 47.0663 69.8296 46.9778 70.2768C46.7833 70.8682 46.3705 71.3632 45.8237 71.661C45.2768 71.9588 44.637 72.037 44.0344 71.8798C43.8656 71.8798 43.7179 71.7638 44.0344 71.6478C45.7118 70.9939 44.8362 69.1801 43.9606 69.4015C43.8234 69.4015 43.8762 69.5281 43.9606 69.6124C44.2454 70.0554 43.8656 70.6037 43.4014 70.7408C43.0869 70.8005 42.7629 70.7878 42.4541 70.7038C42.1452 70.6197 41.8594 70.4665 41.6185 70.2557C40.9455 69.7298 40.4187 69.0398 40.0888 68.252C40.0888 68.1466 40.0888 68.0938 40.1732 68.1677C40.4298 68.3896 40.7475 68.5285 41.0847 68.5662C41.4218 68.6039 41.7625 68.5384 42.0616 68.3786C42.2304 68.2415 42.241 68.2415 42.0616 68.1677C41.5903 68.0129 41.1583 67.7574 40.7957 67.4189C42.1324 67.2706 43.4552 67.0168 44.7518 66.6596C44.7843 66.8893 44.865 67.1095 44.9887 67.3058C45.1123 67.5021 45.276 67.67 45.4692 67.7986C45.6402 67.9412 45.8407 68.0443 46.0562 68.1003C46.2718 68.1563 46.4971 68.164 46.7159 68.1226C46.9348 68.0813 47.1418 67.992 47.322 67.8612C47.5023 67.7305 47.6513 67.5614 47.7585 67.3662C48.0316 66.8039 48.0769 66.1578 47.8851 65.5629C48.1488 65.4574 48.402 65.3309 48.6657 65.2149C49.2042 65.6517 49.6613 66.1801 50.0161 66.7756C50.6891 67.9789 51.0517 69.3308 51.0711 70.7092C51.0711 70.7092 51.0711 71.3525 51.683 70.1292C51.683 70.1292 52.0205 69.2433 52.9489 69.9921C52.9489 69.9921 54.2043 71.2787 55.3543 70.8357C55.3543 70.8357 56.6097 70.6776 56.4092 68.8742C56.3414 68.5714 56.1811 68.2971 55.9505 68.0893C55.72 67.8815 55.4305 67.7504 55.1222 67.7142C54.9261 67.6918 54.7276 67.7176 54.5437 67.7893C54.3599 67.8609 54.1963 67.9763 54.0672 68.1255C54.0672 68.1255 53.8562 68.3364 54.2043 68.2731C54.316 68.1846 54.449 68.127 54.59 68.1062C54.731 68.0853 54.875 68.1019 55.0076 68.1542C55.1401 68.2066 55.2565 68.2929 55.3452 68.4045C55.4338 68.516 55.4915 68.649 55.5125 68.7899C55.5634 69.0163 55.5233 69.2536 55.401 69.4508C55.2787 69.6479 55.0839 69.7893 54.8584 69.8445C54.5114 69.8426 54.1705 69.7526 53.8679 69.5829C53.5652 69.4132 53.3107 69.1693 53.1283 68.8742C52.8657 68.2899 52.4765 67.7712 51.9889 67.3557C51.9889 67.3557 53.4131 66.9444 52.643 65.7843C52.2363 65.4011 51.7035 65.1798 51.1449 65.1621C51.586 65.0357 51.9981 64.8243 52.3581 64.5399C52.548 64.4767 52.7379 64.4028 52.9278 64.3185L53.2021 64.1919C53.8595 64.2445 54.4954 64.4504 55.0589 64.793C55.8606 65.4469 56.4092 66.6702 56.8734 66.3538C57.3376 66.0374 56.9895 65.7738 56.8734 65.5629C56.7574 65.352 56.8734 65.3414 57.2005 65.6472C57.5275 65.9531 58.0022 66.28 58.4453 65.6472C58.8884 65.0145 58.2027 63.7279 56.04 63.6014C55.4281 63.517 55.6602 63.3377 56.2299 63.3588C56.7996 63.3799 59.0572 63.6857 58.8673 65.7738C58.8673 66.3538 58.5719 66.3011 58.3926 66.7124C58.2132 67.1236 58.3926 67.7142 58.8884 67.672C58.7884 67.7552 58.7105 67.8617 58.6615 67.9821C58.6125 68.1025 58.594 68.2332 58.6076 68.3625C58.6211 68.4918 58.6664 68.6157 58.7393 68.7234C58.8122 68.831 58.9105 68.9191 59.0255 68.9797C59.4475 69.1484 60.6396 68.9164 60.7873 66.7124C60.7873 66.4382 60.7873 65.7316 61.0616 66.6491C61.3359 67.5666 61.8634 64.9301 59.7113 63.7068C58.3465 62.9515 56.7686 62.6731 55.2277 62.9159L55.734 62.5046H55.8712L55.9978 62.3253C56.6262 61.7739 57.2248 61.1896 57.7912 60.5747L57.8967 60.5115C58.1869 60.2975 58.5304 60.1675 58.8896 60.1359C59.2488 60.1043 59.6097 60.1722 59.9328 60.3322C60.1695 60.5246 60.3226 60.8012 60.36 61.1039C60.3973 61.4066 60.3161 61.712 60.1333 61.9562C60.0489 62.0511 59.9539 62.1671 60.1333 62.241C60.9878 62.7788 62.528 60.5958 60.9983 59.2776C60.7346 59.0456 60.9245 58.9612 61.1144 58.9823C61.4761 58.9948 61.8314 59.0816 62.1581 59.2373C62.4849 59.393 62.7761 59.6142 63.0136 59.8872C63.2511 60.1603 63.4298 60.4792 63.5387 60.8243C63.6475 61.1694 63.6842 61.5331 63.6463 61.893C63.5973 62.5071 63.5973 63.1243 63.6463 63.7385C63.6682 63.9386 63.7408 64.1298 63.8574 64.294C63.974 64.4582 64.1306 64.5899 64.3124 64.6765C64.4942 64.7631 64.6952 64.8019 64.8962 64.7891C65.0972 64.7762 65.2916 64.7123 65.4609 64.6032C65.8809 64.3487 66.2093 63.9676 66.3989 63.5147C66.5884 63.0618 66.6294 62.5604 66.5158 62.0828C66.2216 60.9642 65.5272 59.9924 64.5641 59.3514C64.4586 59.2671 64.4797 59.1932 64.5641 59.1827C65.394 59.1788 66.2135 59.3665 66.9589 59.7311C67.5458 60.0198 68.1658 60.2358 68.8051 60.3744C69.2368 60.4416 69.678 60.343 70.04 60.0985C70.402 59.854 70.6581 59.4816 70.7568 59.0562C70.894 58.339 70.5247 57.7379 69.9339 57.7379C69.7124 57.7379 69.4487 57.8118 69.7018 57.4637C70.1088 56.8779 70.3059 56.1719 70.261 55.4601C70.261 55.2175 70.1555 55.2702 70.0711 55.4601C69.6646 56.2614 69.0533 56.9411 68.2993 57.43C67.5452 57.919 66.6751 58.1999 65.7773 58.2441C63.5709 58.0033 61.3384 58.2481 59.2365 58.9612C59.483 58.7627 59.7439 58.5829 60.0172 58.4234C61.146 58.1598 62.296 58.0332 62.8867 57.9488C66.6952 57.4637 67.9189 56.1033 68.3937 54.9749C68.506 54.7507 68.5645 54.5034 68.5645 54.2526C68.5645 54.0018 68.506 53.7544 68.3937 53.5302C67.6025 54.0153 66.8007 54.8168 65.9883 55.4284C65.4459 55.9066 64.7587 56.1888 64.0367 56.2299C65.0818 55.5135 66.0694 54.7166 66.9906 53.8466C67.2975 53.5425 67.6668 53.3086 68.073 53.1611C68.4792 53.0136 68.9125 52.9561 69.3432 52.9924C69.3432 52.9924 69.3432 52.9396 69.2588 52.8869C68.9416 52.742 68.5924 52.6814 68.2449 52.7109C67.8975 52.7405 67.5635 52.8592 67.2754 53.0556C67.1128 53.1033 66.9594 53.1781 66.8218 53.2771C66.8124 53.2426 66.8124 53.2061 66.8218 53.1716C67.4548 51.9694 69.1111 51.2101 69.9339 51.5476C70.0394 51.5476 70.0183 51.653 69.9867 51.6952C69.7998 51.9746 69.7001 52.303 69.7001 52.6391C69.7001 52.9751 69.7998 53.3036 69.9867 53.5829C70.1089 53.7469 70.2629 53.8846 70.4396 53.9876C70.6163 54.0906 70.812 54.157 71.0149 54.1826C71.2178 54.2082 71.4239 54.1925 71.6206 54.1366C71.8174 54.0807 72.0008 53.9856 72.1599 53.8571C72.3518 53.7181 72.5116 53.5396 72.6285 53.3337C72.7455 53.1277 72.8168 52.8991 72.8378 52.6632C72.8588 52.4272 72.829 52.1896 72.7502 51.9662C72.6715 51.7428 72.5458 51.5389 72.3815 51.3683C71.2105 50.1028 69.2166 50.3876 67.7924 51.4843C67.411 51.7816 67.0578 52.1135 66.7374 52.4756C66.7374 52.3807 66.8112 52.2858 66.8429 52.1909C67.0158 51.6354 67.3085 51.1247 67.7004 50.6946C68.0923 50.2646 68.5739 49.9258 69.1111 49.7021C70.2715 49.3541 71.7379 49.565 71.7379 48.9322C71.7379 48.4682 71.2843 48.4682 71.0311 48.4577C70.0156 48.5762 69.0541 48.9783 68.2565 49.6177C68.7024 48.9078 69.4054 48.3977 70.2188 48.194C71.7063 47.73 72.3287 47.6668 72.1705 47.0235C72.0122 46.3802 70.261 46.0743 68.7313 48.078C68.2565 48.6264 68.2565 48.289 68.6469 47.7617C69.0372 47.2344 70.7568 45.2412 72.5503 46.7071C73.0883 47.0762 72.8457 47.3187 73.0989 47.7617C73.1478 47.8753 73.2267 47.9736 73.327 48.046C73.4273 48.1185 73.5454 48.1625 73.6687 48.1733C73.792 48.1841 73.9159 48.1613 74.0273 48.1074C74.1388 48.0535 74.2335 47.9705 74.3015 47.8671C74.3096 48.0108 74.3549 48.15 74.4328 48.2711C74.5107 48.3921 74.6187 48.4909 74.7462 48.5578C74.8737 48.6247 75.0164 48.6575 75.1603 48.6529C75.3042 48.6483 75.4445 48.6064 75.5675 48.5315C75.6984 48.4284 75.8043 48.2971 75.8773 48.1473C75.9504 47.9976 75.9887 47.8333 75.9895 47.6668C75.9981 47.3392 75.8854 47.0199 75.673 46.7704C75.2357 46.173 74.6513 45.6989 73.9766 45.394C73.3019 45.0891 72.5598 44.9638 71.8223 45.0303V44.9881Z" fill="#D7B46A"/>
<path d="M37.9789 19.6994C33.5033 19.6994 29.1282 21.0261 25.4068 23.5117C21.6855 25.9973 18.7851 29.5301 17.0723 33.6635C15.3596 37.7969 14.9115 42.3451 15.7846 46.7331C16.6578 51.1211 18.813 55.1517 21.9777 58.3152C25.1425 61.4788 29.1746 63.6332 33.5642 64.506C37.9538 65.3788 42.5038 64.9309 46.6387 63.2188C50.7736 61.5067 54.3078 58.6073 56.7943 54.8874C59.2808 51.1674 60.608 46.794 60.608 42.32C60.6024 36.3224 58.2165 30.572 53.9739 26.331C49.7313 22.09 43.9788 19.705 37.9789 19.6994ZM37.9789 65.6261C33.3677 65.6261 28.86 64.2593 25.0259 61.6984C21.1918 59.1374 18.2035 55.4975 16.4388 51.2389C14.6742 46.9803 14.2125 42.2942 15.1121 37.7733C16.0117 33.2523 18.2322 29.0996 21.4928 25.8402C24.7535 22.5807 28.9078 20.361 33.4304 19.4618C37.953 18.5625 42.6409 19.024 46.9011 20.788C51.1613 22.552 54.8026 25.5392 57.3645 29.3719C59.9263 33.2045 61.2937 37.7105 61.2937 42.32C61.2881 48.4995 58.83 54.4242 54.4588 58.7938C50.0876 63.1633 44.1607 65.6206 37.9789 65.6261Z" fill="#D7B46A"/>
<path d="M31.6491 35.2755C32.3366 35.0286 33.0419 34.8347 33.759 34.6955C34.065 34.6322 34.487 34.5795 35.025 34.5268C35.4125 32.8279 35.9166 31.1577 36.5336 29.5281C34.8009 29.9639 33.0375 30.2671 31.2587 30.435L31.0583 31.3209C31.2515 31.3073 31.4454 31.3073 31.6385 31.3209C31.8457 31.3091 32.0495 31.377 32.2082 31.5107C32.278 31.5792 32.3327 31.6614 32.369 31.7522C32.4054 31.843 32.4224 31.9403 32.4192 32.038C32.4118 32.3233 32.3693 32.6067 32.2926 32.8816L31.6491 35.2755Z" fill="#D7B46A"/>
<path d="M54.5947 31.9114C54.4616 31.6251 54.2505 31.3822 53.9855 31.2106C53.7205 31.0389 53.4124 30.9456 53.0966 30.9412C52.9251 30.9378 52.7546 30.9686 52.5951 31.032C52.4357 31.0954 52.2906 31.19 52.1682 31.3103C52.0432 31.4335 51.9457 31.5818 51.8821 31.7454C51.8184 31.909 51.7901 32.0841 51.799 32.2594C51.7966 32.4553 51.8214 32.6505 51.8728 32.8394C51.8728 32.966 52.1155 33.3667 52.4636 34.0311C53.1272 35.3376 53.4672 36.7842 53.4553 38.2494C53.418 40.5761 52.9864 42.8795 52.1788 45.062C51.4204 47.3078 50.3093 49.4187 48.8873 51.3156C47.7113 52.9051 46.212 54.2277 44.4881 55.1964C43.3213 55.837 42.0108 56.1708 40.6796 56.1666C40.005 56.181 39.3354 56.0478 38.7176 55.7763C38.0998 55.5049 37.5489 55.1018 37.1033 54.5953C36.5531 53.9953 36.1551 53.2719 35.9428 52.4862C35.5314 52.4862 35.1094 52.4862 34.6979 52.4862C34.2865 52.4862 33.3898 52.4862 32.3454 52.3912C32.4431 53.9395 33.0305 55.4167 34.0228 56.6095C34.6334 57.2932 35.3911 57.8297 36.2389 58.1786C37.0867 58.5274 38.0027 58.6797 38.9178 58.6238C41.6199 58.6067 44.2467 57.7314 46.4187 56.1244C48.7959 54.4512 50.9058 51.6601 52.7485 47.7511C54.4819 44.0694 55.3824 40.0511 55.3859 35.9821C55.4785 34.5796 55.2059 33.1771 54.5947 31.9114Z" fill="#D7B46A"/>
<path d="M30.1088 37.2159C29.2575 37.8019 28.5387 38.5599 27.9989 39.4411C27.428 40.3337 27.1141 41.3663 27.0916 42.4255C27.0658 42.972 27.2423 43.5089 27.5874 43.9336C27.759 44.1475 27.9849 44.3114 28.2415 44.4081C28.4027 44.472 28.5746 44.5042 28.7479 44.503C28.9471 44.5033 29.1444 44.4639 29.3281 44.387C29.4496 44.3194 29.5629 44.238 29.6657 44.1445C29.7851 44.022 29.8785 43.8767 29.9401 43.7172C30.0018 43.5577 30.0305 43.3873 30.0244 43.2165C30.0097 42.9625 29.9414 42.7145 29.824 42.4888C29.7384 42.315 29.6433 42.146 29.5391 41.9826C29.3517 41.7235 29.209 41.4347 29.1172 41.1284C29.103 41.0482 29.103 40.9661 29.1172 40.8858C29.1312 40.3553 29.3039 39.841 29.613 39.4094C29.7321 39.2291 29.8624 39.0565 30.0033 38.8927C30.3066 38.5644 30.6633 38.2898 31.0583 38.0807C31.6519 37.7279 32.2859 37.4482 32.9467 37.2476C33.4384 37.1035 33.9388 36.9908 34.4448 36.9101C34.8034 36.8574 35.1727 36.8046 35.4997 36.773C36.1136 36.7196 36.7298 36.6985 37.3459 36.7097C35.7077 39.9397 34.2976 43.2803 33.126 46.7071C32.8707 47.511 32.6733 48.3322 32.5353 49.1643C32.8623 49.1643 33.1577 49.1643 33.4425 49.1643C34.2167 49.1674 34.9897 49.1039 35.7529 48.9744C35.9878 47.229 36.4342 45.5186 37.0822 43.8808C38.1747 40.8456 39.5339 37.913 41.1438 35.1173C40.8062 35.1806 39.8778 35.2544 38.3692 35.3282L35.869 35.4864L34.814 35.5919C34.4764 35.5919 34.2127 35.6762 34.0122 35.7184C33.116 35.886 32.2418 36.1549 31.4064 36.5199C31.0705 36.6786 30.743 36.8546 30.4253 37.0472L30.1721 37.2159H30.1088Z" fill="#D7B46A"/>
<path d="M35.7424 51.3894C36.0905 51.3894 36.4281 51.3261 36.7973 51.2734C38.3784 51.04 39.9171 50.5782 41.3654 49.9025C43.7103 48.7891 45.6819 47.0198 47.0411 44.8089C48.5929 42.4877 49.4124 39.7546 49.3937 36.9628C49.4275 35.5203 49.1425 34.0881 48.5589 32.7683C47.9754 31.4485 47.1077 30.2737 46.0178 29.3277C43.4871 27.1881 40.2333 26.0976 36.9239 26.28C33.9926 26.2344 31.0948 26.9079 28.4842 28.2415C26.0821 29.4404 24.0456 31.2612 22.5869 33.5144C21.237 35.5481 20.5043 37.9286 20.477 40.3691C20.502 41.8629 20.9925 43.3116 21.8801 44.5136C22.0928 44.9037 22.3948 45.238 22.7615 45.4891C23.1283 45.7402 23.5492 45.901 23.99 45.9583C24.3309 45.9615 24.6597 45.8325 24.9075 45.5985C25.1554 45.3646 25.3029 45.0438 25.3193 44.7034C25.3239 44.4664 25.2538 44.2339 25.1188 44.039C24.8779 43.7718 24.5878 43.5534 24.2643 43.3957C23.5424 43.0476 22.9387 42.4952 22.528 41.8072C22.1173 41.1192 21.9177 40.3258 21.9539 39.5254C22.0142 37.526 22.6719 35.5904 23.8423 33.9678C25.1339 32.0294 26.8937 30.448 28.9589 29.3699C31.0818 28.2261 33.4573 27.6316 35.869 27.6404C37.1672 27.5903 38.4615 27.8132 39.6682 28.2946C40.8748 28.7759 41.967 29.5052 42.874 30.435C43.7855 31.428 44.4916 32.5915 44.9515 33.8584C45.4114 35.1254 45.616 36.4707 45.5536 37.817C45.5911 40.0741 45.0499 42.3032 43.9817 44.2921C43.2497 45.6951 42.2199 46.9213 40.9644 47.8849C39.7089 48.8485 38.2579 49.5263 36.7129 49.8708C36.3753 49.9552 36.0272 50.0185 35.658 50.0712C34.9174 50.1789 34.1698 50.2318 33.4214 50.2294C33.0944 50.2294 32.7463 50.2294 32.3665 50.2294L31.3115 50.1028C30.9739 50.1028 30.6152 49.9974 30.2565 49.9235C31.7909 46.9573 32.9024 43.791 33.5586 40.5167L34.1916 37.9647C33.835 38.0361 33.4828 38.1277 33.1366 38.2389C32.2242 38.4726 31.3859 38.9333 30.6996 39.5782C30.6258 39.6731 30.5519 39.7575 30.4886 39.8524L30.1721 41.0651C30.2308 41.1822 30.2978 41.295 30.3726 41.4026C30.7714 41.9373 31.0125 42.5729 31.0689 43.2375C31.0745 43.5449 31.0175 43.8501 30.9014 44.1347C30.7853 44.4193 30.6126 44.6774 30.3937 44.8932C30.0182 45.2781 29.516 45.5141 28.98 45.5576C28.6204 46.7565 28.147 47.9183 27.5664 49.0272C27.3804 49.3568 27.1016 49.6245 26.7646 49.797C26.0008 50.0214 25.208 50.1315 24.412 50.1239L23.9373 51.1785C25.1927 51.1785 26.1421 51.1152 26.754 51.1152C28.0938 51.1152 29.4969 51.1679 30.9739 51.2839H31.2798L32.3348 51.3578C33.3898 51.4316 34.1916 51.4632 34.7085 51.4632C35.0531 51.4632 35.4048 51.4632 35.7635 51.4632L35.7424 51.3894Z" fill="#D7B46A"/>
</g>
<defs>
<clipPath id="clip0">
<rect width="76" height="80" fill="white"/>
</clipPath>
</defs>
</svg>
