<svg width="12" height="12" viewBox="0 0 12 12" fill="none" xmlns="http://www.w3.org/2000/svg">
<rect y="5" width="12" height="2" fill="#D3B069"/>
<rect x="5" y="12" width="12" height="2" transform="rotate(-90 5 12)" fill="#D3B069"/>
</svg>
